raster-core/wave.vcd
$date
	Fri Sep 19 00:27:04 2025
$end
$version
	Icarus Verilog
$end
$timescale
	100ps
$end
$scope module tb_raster_core $end
$var wire 1 ! wch_en $end
$var wire 32 " wch_data [31:0] $end
$var wire 32 # wch_addr [31:0] $end
$var wire 1 $ ready $end
$var wire 1 % rch_en $end
$var wire 32 & rch_addr [31:0] $end
$var reg 1 ' clk $end
$var reg 32 ( data [31:0] $end
$var reg 1 ) is_handshake $end
$var reg 1 * nreset $end
$var reg 32 + rch_data [31:0] $end
$var reg 2 , read_valid_pipeline [1:0] $end
$var integer 32 - cycle_count [31:0] $end
$var integer 32 . i [31:0] $end
$var integer 32 / test_case [31:0] $end
$var integer 32 0 timeout_counter [31:0] $end
$scope module dut $end
$var wire 1 ' clk $end
$var wire 1 1 comb_skip_triangle $end
$var wire 32 2 data [31:0] $end
$var wire 1 ) is_handshake $end
$var wire 1 * nreset $end
$var wire 32 3 rch_data [31:0] $end
$var wire 1 ! wch_en $end
$var wire 7 4 y_start [6:0] $end
$var wire 7 5 y_end [6:0] $end
$var wire 8 6 x_len [7:0] $end
$var wire 32 7 wch_data [31:0] $end
$var wire 32 8 wch_addr [31:0] $end
$var wire 1 $ ready $end
$var wire 1 % rch_en $end
$var wire 32 9 rch_addr [31:0] $end
$var wire 32 : lambda_sum [31:0] $end
$var reg 4 ; data_it [3:0] $end
$var reg 32 < header [31:0] $end
$var reg 2 = rasterizer_state [1:0] $end
$var reg 1 > should_write_pixel $end
$var reg 1 ? skip_triangle $end
$var reg 33 @ x_it [32:0] $end
$var reg 16 A z_zero [15:0] $end
$upscope $end
$scope task send_triangle_data $end
$var reg 32 B header_data [31:0] $end
$var reg 32 C lambda_diff_0 [31:0] $end
$var reg 32 D lambda_diff_1 [31:0] $end
$var reg 32 E lambda_diff_2 [31:0] $end
$var reg 32 F lambda_diff_3 [31:0] $end
$var reg 32 G lambda_zero_0 [31:0] $end
$var reg 32 H lambda_zero_1 [31:0] $end
$var reg 16 I z_diff_0 [15:0] $end
$var reg 16 J z_diff_1 [15:0] $end
$var reg 16 K z_zero_data [15:0] $end
$upscope $end
$scope task wait_for_completion $end
$upscope $end
$upscope $end
$enddefinitions $end
#0
$dumpvars
bx K
bx J
bx I
bx H
bx G
bx F
bx E
bx D
bx C
bx B
bx A
bx @
x?
x>
bx =
bx <
bx ;
bx :
bx 9
bx 8
bx 7
b0 6
b1 5
b0 4
b0 3
b0 2
01
b0 0
b0 /
b1000000000 .
b0 -
bx ,
b0 +
0*
0)
b0 (
0'
bx &
x%
x$
bx #
bx "
x!
$end
#50
b0 #
b0 8
b0 &
b0 9
1$
0%
b0 =
0?
b0 ;
b0 @
b0 "
b0 7
b0 A
b0 :
b0 <
0!
0>
b0 ,
b10 .
1'
#100
0'
#150
b10 .
1'
#200
0'
#250
b10 .
1'
#300
0'
#350
b10 .
1'
#400
0'
#450
b10 .
1'
#500
1*
0'
#550
b1 0
b0 .
1'
#600
0'
#650
b0 .
b10 0
1'
#700
0'
#750
b11 0
b0 .
1'
#800
0'
#850
b0 .
b100 0
1'
#900
0'
#950
b101 0
b0 .
1'
#1000
b100000 J
b10000 I
b1000000000000 K
b1001010000000000000000 F
b101010000000000000000 E
b1000000000000000000000 D
b100000000000000000000 C
b100000000000000000000000000000 H
b10000000000000000000000000000 G
b101000000000010000000 B
b1 /
0'
#1050
b0 .
b110 0
1'
#1100
b101 5
b1000000 6
1)
b101000000000010000000 (
b101000000000010000000 2
0'
#1150
b100000000000000000000000 "
b100000000000000000000000 7
b101000000000010000000 <
b1 ;
b111 0
b0 .
1'
#1200
0)
0'
#1250
b0 .
b1000 0
1'
#1300
b1 5
b0 6
1)
b10000000000000000000000000000 (
b10000000000000000000000000000 2
0'
#1350
b10000000000000000000000000000 :
b10 ;
b1001 0
b0 .
1'
#1400
0)
0'
#1450
b0 .
b1010 0
1'
#1500
1)
b100000000000000000000000000000 (
b100000000000000000000000000000 2
0'
#1550
b110000000000000000000000000000 :
b11 ;
b1011 0
b0 .
1'
#1600
0)
0'
#1650
b0 .
b1100 0
1'
#1700
1)
b100000000000000000000 (
b100000000000000000000 2
0'
#1750
b100 ;
b1101 0
b0 .
1'
#1800
0)
0'
#1850
b0 .
b1110 0
1'
#1900
1)
b1000000000000000000000 (
b1000000000000000000000 2
0'
#1950
b101 ;
b1111 0
b0 .
1'
#2000
0)
0'
#2050
b0 .
b10000 0
1'
#2100
b1010000 6
1)
b101010000000000000000 (
b101010000000000000000 2
0'
#2150
b110 ;
b10001 0
b0 .
1'
#2200
0)
0'
#2250
b0 .
b10010 0
1'
#2300
1)
b1001010000000000000000 (
b1001010000000000000000 2
0'
#2350
b111 ;
b10011 0
b0 .
1'
#2400
0)
0'
#2450
b0 .
b10100 0
1'
#2500
b1 6
1)
b1000000000000 (
b1000000000000 2
0'
#2550
b100000000001000000000000 "
b100000000001000000000000 7
b1000000000000 A
b1000 ;
b10101 0
b0 .
1'
#2600
0)
0'
#2650
b0 .
b10110 0
1'
#2700
b100000 4
b0 6
1)
b10000 (
b10000 2
0'
#2750
b1001 ;
b10111 0
b0 .
1'
#2800
0)
0'
#2850
b0 .
b11000 0
1'
#2900
b1000000 4
1)
b100000 (
b100000 2
0'
#2950
0$
b1 =
b0 ;
b11001 0
b0 .
1'
#3000
0)
0'
#3050
1%
b10 =
b0 .
b11010 0
1'
#3100
b1 -
0'
#3150
b1 &
b1 9
b1 ,
b1 @
b11011 0
b0 .
1'
#3200
b10 -
0'
#3250
b10 &
b10 9
b10 @
b11 ,
b0 .
b11100 0
1'
#3300
b11 -
0'
#3350
b1 #
b1 8
b11 &
b11 9
b11 @
1!
1>
b100000000001000000010000 "
b100000000001000000010000 7
b1000000010000 A
b110000010001010000000000000000 :
b11101 0
b0 .
1'
#3400
b100 -
0'
#3450
b10 #
b10 8
b100 &
b100 9
b100 @
b100000000001000000100000 "
b100000000001000000100000 7
b1000000100000 A
b110000100010100000000000000000 :
b10001000100010001000100010001 +
b10001000100010001000100010001 3
b0 .
b11110 0
1'
#3500
b101 -
0'
#3550
b11 #
b11 8
b101 &
b101 9
b100010001000100010001000100010 +
b100010001000100010001000100010 3
b101 @
b100000000001000000110000 "
b100000000001000000110000 7
b1000000110000 A
b110000110011110000000000000000 :
b11111 0
b0 .
1'
#3600
b110 -
0'
#3650
b100 #
b100 8
b110 &
b110 9
b110 @
b100000000001000001000000 "
b100000000001000001000000 7
b1000001000000 A
b110001000101000000000000000000 :
b110011001100110011001100110011 +
b110011001100110011001100110011 3
b0 .
b100000 0
1'
#3700
b111 -
0'
#3750
b101 #
b101 8
b111 &
b111 9
b1000100010001000100010001000100 +
b1000100010001000100010001000100 3
b111 @
b100000000001000001010000 "
b100000000001000001010000 7
b1000001010000 A
b110001010110010000000000000000 :
b100001 0
b0 .
1'
#3800
b1000 -
0'
#3850
b110 #
b110 8
b1000 &
b1000 9
b1000 @
b100000000001000001100000 "
b100000000001000001100000 7
b1000001100000 A
b110001100111100000000000000000 :
b1010101010101010101010101010101 +
b1010101010101010101010101010101 3
b0 .
b100010 0
1'
#3900
b1001 -
0'
#3950
b111 #
b111 8
b1001 &
b1001 9
b1100110011001100110011001100110 +
b1100110011001100110011001100110 3
b1001 @
b100000000001000001110000 "
b100000000001000001110000 7
b1000001110000 A
b110001111000110000000000000000 :
b100011 0
b0 .
1'
#4000
b1010 -
0'
#4050
b1000 #
b1000 8
b1010 &
b1010 9
b1010 @
b100000000001000010000000 "
b100000000001000010000000 7
b1000010000000 A
b110010001010000000000000000000 :
b1110111011101110111011101110111 +
b1110111011101110111011101110111 3
b0 .
b100100 0
1'
#4100
b1011 -
0'
#4150
b1001 #
b1001 8
b1011 &
b1011 9
b10001000100010001000100010001000 +
b10001000100010001000100010001000 3
b1011 @
b100000000001000010010000 "
b100000000001000010010000 7
b1000010010000 A
b110010011011010000000000000000 :
b100101 0
b0 .
1'
#4200
b1100 -
0'
#4250
b1010 #
b1010 8
b1100 &
b1100 9
b1100 @
b100000000001000010100000 "
b100000000001000010100000 7
b1000010100000 A
b110010101100100000000000000000 :
b10011001100110011001100110011001 +
b10011001100110011001100110011001 3
b0 .
b100110 0
1'
#4300
b1101 -
0'
#4350
b1011 #
b1011 8
b1101 &
b1101 9
b10101010101010101010101010101010 +
b10101010101010101010101010101010 3
b1101 @
b100000000001000010110000 "
b100000000001000010110000 7
b1000010110000 A
b110010111101110000000000000000 :
b100111 0
b0 .
1'
#4400
b1110 -
0'
#4450
b1100 #
b1100 8
b1110 &
b1110 9
b1110 @
b100000000001000011000000 "
b100000000001000011000000 7
b1000011000000 A
b110011001111000000000000000000 :
b10111011101110111011101110111011 +
b10111011101110111011101110111011 3
b0 .
b101000 0
1'
#4500
b1111 -
0'
#4550
b1101 #
b1101 8
b1111 &
b1111 9
b11001100110011001100110011001100 +
b11001100110011001100110011001100 3
b1111 @
b100000000001000011010000 "
b100000000001000011010000 7
b1000011010000 A
b110011100000010000000000000000 :
b101001 0
b0 .
1'
#4600
b10000 -
0'
#4650
b1110 #
b1110 8
b10000 &
b10000 9
b10000 @
b100000000001000011100000 "
b100000000001000011100000 7
b1000011100000 A
b110011110001100000000000000000 :
b11011101110111011101110111011101 +
b11011101110111011101110111011101 3
b0 .
b101010 0
1'
#4700
b10001 -
0'
#4750
b1111 #
b1111 8
b10001 &
b10001 9
b11101110111011101110111011101110 +
b11101110111011101110111011101110 3
b10001 @
b100000000001000011110000 "
b100000000001000011110000 7
b1000011110000 A
b110100000010110000000000000000 :
b101011 0
b0 .
1'
#4800
b10010 -
0'
#4850
b10000 #
b10000 8
b10010 &
b10010 9
b10010 @
b100000000001000100000000 "
b100000000001000100000000 7
b1000100000000 A
b110100010100000000000000000000 :
b11111111111111111111111111111111 +
b11111111111111111111111111111111 3
b0 .
b101100 0
1'
#4900
b10011 -
0'
#4950
b10001 #
b10001 8
b10011 &
b10011 9
b10010001101000101011001111000 +
b10010001101000101011001111000 3
b10011 @
b100000000001000100010000 "
b100000000001000100010000 7
b1000100010000 A
b110100100101010000000000000000 :
b101101 0
b0 .
1'
#5000
b10100 -
0'
#5050
b10010 #
b10010 8
b10100 &
b10100 9
b10100 @
b100000000001000100100000 "
b100000000001000100100000 7
b1000100100000 A
b110100110110100000000000000000 :
b10000111011001010100001100100001 +
b10000111011001010100001100100001 3
b0 .
b101110 0
1'
#5100
b10101 -
0'
#5150
b10011 #
b10011 8
b10101 &
b10101 9
b11111110110111001011101010011000 +
b11111110110111001011101010011000 3
b10101 @
b100000000001000100110000 "
b100000000001000100110000 7
b1000100110000 A
b110101000111110000000000000000 :
b101111 0
b0 .
1'
#5200
b10110 -
0'
#5250
b10100 #
b10100 8
b10110 &
b10110 9
b10110 @
b100000000001000101000000 "
b100000000001000101000000 7
b1000101000000 A
b110101011001000000000000000000 :
b10101011110011011110111100000001 +
b10101011110011011110111100000001 3
b0 .
b110000 0
1'
#5300
b10111 -
0'
#5350
b10101 #
b10101 8
b10111 &
b10111 9
b10011010101111001101111011111 +
b10011010101111001101111011111 3
b10111 @
b100000000001000101010000 "
b100000000001000101010000 7
b1000101010000 A
b110101101010010000000000000000 :
b110001 0
b0 .
1'
#5400
b11000 -
0'
#5450
b10110 #
b10110 8
b11000 &
b11000 9
b11000 @
b100000000001000101100000 "
b100000000001000101100000 7
b1000101100000 A
b110101111011100000000000000000 :
b100100011010001010110011100000 +
b100100011010001010110011100000 3
b0 .
b110010 0
1'
#5500
b11001 -
0'
#5550
b10111 #
b10111 8
b11001 &
b11001 9
b11110000111100001111000011110000 +
b11110000111100001111000011110000 3
b11001 @
b100000000001000101110000 "
b100000000001000101110000 7
b1000101110000 A
b110110001100110000000000000000 :
b110011 0
b0 .
1'
#5600
b11010 -
0'
#5650
b11000 #
b11000 8
b11010 &
b11010 9
b11010 @
b100000000001000110000000 "
b100000000001000110000000 7
b1000110000000 A
b110110011110000000000000000000 :
b1111000011110000111100001111 +
b1111000011110000111100001111 3
b0 .
b110100 0
1'
#5700
b11011 -
0'
#5750
b11001 #
b11001 8
b11011 &
b11011 9
b10100101101001011010010110100101 +
b10100101101001011010010110100101 3
b11011 @
b100000000001000110010000 "
b100000000001000110010000 7
b1000110010000 A
b110110101111010000000000000000 :
b110101 0
b0 .
1'
#5800
b11100 -
0'
#5850
b11010 #
b11010 8
b11100 &
b11100 9
b11100 @
b100000000001000110100000 "
b100000000001000110100000 7
b1000110100000 A
b110111000000100000000000000000 :
b1011010010110100101101001011010 +
b1011010010110100101101001011010 3
b0 .
b110110 0
1'
#5900
b11101 -
0'
#5950
b11011 #
b11011 8
b11101 &
b11101 9
b11000011110000111100001111000011 +
b11000011110000111100001111000011 3
b11101 @
b100000000001000110110000 "
b100000000001000110110000 7
b1000110110000 A
b110111010001110000000000000000 :
b110111 0
b0 .
1'
#6000
b11110 -
0'
#6050
b11100 #
b11100 8
b11110 &
b11110 9
b11110 @
b100000000001000111000000 "
b100000000001000111000000 7
b1000111000000 A
b110111100011000000000000000000 :
b111100001111000011110000111100 +
b111100001111000011110000111100 3
b0 .
b111000 0
1'
#6100
b11111 -
0'
#6150
b11101 #
b11101 8
b11111 &
b11111 9
b11111111000000001111111100000000 +
b11111111000000001111111100000000 3
b11111 @
b100000000001000111010000 "
b100000000001000111010000 7
b1000111010000 A
b110111110100010000000000000000 :
b111001 0
b0 .
1'
#6200
b100000 -
0'
#6250
b11110 #
b11110 8
b100000 &
b100000 9
b100000 @
b100000000001000111100000 "
b100000000001000111100000 7
b1000111100000 A
b111000000101100000000000000000 :
b111111110000000011111111 +
b111111110000000011111111 3
b0 .
b111010 0
1'
#6300
b100001 -
0'
#6350
b11111 #
b11111 8
b100001 &
b100001 9
b11111111111111111111111111111111 +
b11111111111111111111111111111111 3
b100001 @
b100000000001000111110000 "
b100000000001000111110000 7
b1000111110000 A
b111000010110110000000000000000 :
b111011 0
b0 .
1'
#6400
b100010 -
0'
#6450
b100000 #
b100000 8
b100010 &
b100010 9
b100010 @
b100000000001001000000000 "
b100000000001001000000000 7
b1001000000000 A
b111000101000000000000000000000 :
b0 +
b0 3
b0 .
b111100 0
1'
#6500
b100011 -
0'
#6550
b100001 #
b100001 8
b100011 &
b100011 9
b100011 @
b100000000001001000010000 "
b100000000001001000010000 7
b1001000010000 A
b111000111001010000000000000000 :
b111101 0
b0 .
1'
#6600
b100100 -
0'
#6650
b100010 #
b100010 8
b100100 &
b100100 9
b100100 @
b100000000001001000100000 "
b100000000001001000100000 7
b1001000100000 A
b111001001010100000000000000000 :
b0 .
b111110 0
1'
#6700
b100101 -
0'
#6750
b100011 #
b100011 8
b100101 &
b100101 9
b100101 @
b100000000001001000110000 "
b100000000001001000110000 7
b1001000110000 A
b111001011011110000000000000000 :
b111111 0
b0 .
1'
#6800
b100110 -
0'
#6850
b100100 #
b100100 8
b100110 &
b100110 9
b100110 @
b100000000001001001000000 "
b100000000001001001000000 7
b1001001000000 A
b111001101101000000000000000000 :
b0 .
b1000000 0
1'
#6900
b100111 -
0'
#6950
b100101 #
b100101 8
b100111 &
b100111 9
b100111 @
b100000000001001001010000 "
b100000000001001001010000 7
b1001001010000 A
b111001111110010000000000000000 :
b1000001 0
b0 .
1'
#7000
b101000 -
0'
#7050
b100110 #
b100110 8
b101000 &
b101000 9
b101000 @
b100000000001001001100000 "
b100000000001001001100000 7
b1001001100000 A
b111010001111100000000000000000 :
b0 .
b1000010 0
1'
#7100
b101001 -
0'
#7150
b100111 #
b100111 8
b101001 &
b101001 9
b101001 @
b100000000001001001110000 "
b100000000001001001110000 7
b1001001110000 A
b111010100000110000000000000000 :
b1000011 0
b0 .
1'
#7200
b101010 -
0'
#7250
b101000 #
b101000 8
b101010 &
b101010 9
b101010 @
b100000000001001010000000 "
b100000000001001010000000 7
b1001010000000 A
b111010110010000000000000000000 :
b0 .
b1000100 0
1'
#7300
b101011 -
0'
#7350
b101001 #
b101001 8
b101011 &
b101011 9
b101011 @
b100000000001001010010000 "
b100000000001001010010000 7
b1001010010000 A
b111011000011010000000000000000 :
b1000101 0
b0 .
1'
#7400
b101100 -
0'
#7450
b101010 #
b101010 8
b101100 &
b101100 9
b101100 @
b100000000001001010100000 "
b100000000001001010100000 7
b1001010100000 A
b111011010100100000000000000000 :
b0 .
b1000110 0
1'
#7500
b101101 -
0'
#7550
b101011 #
b101011 8
b101101 &
b101101 9
b101101 @
b100000000001001010110000 "
b100000000001001010110000 7
b1001010110000 A
b111011100101110000000000000000 :
b1000111 0
b0 .
1'
#7600
b101110 -
0'
#7650
b101100 #
b101100 8
b101110 &
b101110 9
b101110 @
b100000000001001011000000 "
b100000000001001011000000 7
b1001011000000 A
b111011110111000000000000000000 :
b0 .
b1001000 0
1'
#7700
b101111 -
0'
#7750
b101101 #
b101101 8
b101111 &
b101111 9
b101111 @
b100000000001001011010000 "
b100000000001001011010000 7
b1001011010000 A
b111100001000010000000000000000 :
b1001001 0
b0 .
1'
#7800
b110000 -
0'
#7850
b101110 #
b101110 8
b110000 &
b110000 9
b110000 @
b100000000001001011100000 "
b100000000001001011100000 7
b1001011100000 A
b111100011001100000000000000000 :
b0 .
b1001010 0
1'
#7900
b110001 -
0'
#7950
b101111 #
b101111 8
b110001 &
b110001 9
b110001 @
b100000000001001011110000 "
b100000000001001011110000 7
b1001011110000 A
b111100101010110000000000000000 :
b1001011 0
b0 .
1'
#8000
b110010 -
0'
#8050
b110000 #
b110000 8
b110010 &
b110010 9
b110010 @
b100000000001001100000000 "
b100000000001001100000000 7
b1001100000000 A
b111100111100000000000000000000 :
b0 .
b1001100 0
1'
#8100
b110011 -
0'
#8150
b110001 #
b110001 8
b110011 &
b110011 9
b110011 @
b100000000001001100010000 "
b100000000001001100010000 7
b1001100010000 A
b111101001101010000000000000000 :
b1001101 0
b0 .
1'
#8200
b110100 -
0'
#8250
b110010 #
b110010 8
b110100 &
b110100 9
b110100 @
b100000000001001100100000 "
b100000000001001100100000 7
b1001100100000 A
b111101011110100000000000000000 :
b0 .
b1001110 0
1'
#8300
b110101 -
0'
#8350
b110011 #
b110011 8
b110101 &
b110101 9
b110101 @
b100000000001001100110000 "
b100000000001001100110000 7
b1001100110000 A
b111101101111110000000000000000 :
b1001111 0
b0 .
1'
#8400
b110110 -
0'
#8450
b110100 #
b110100 8
b110110 &
b110110 9
b110110 @
b100000000001001101000000 "
b100000000001001101000000 7
b1001101000000 A
b111110000001000000000000000000 :
b0 .
b1010000 0
1'
#8500
b110111 -
0'
#8550
b110101 #
b110101 8
b110111 &
b110111 9
b110111 @
b100000000001001101010000 "
b100000000001001101010000 7
b1001101010000 A
b111110010010010000000000000000 :
b1010001 0
b0 .
1'
#8600
b111000 -
0'
#8650
b110110 #
b110110 8
b111000 &
b111000 9
b111000 @
b100000000001001101100000 "
b100000000001001101100000 7
b1001101100000 A
b111110100011100000000000000000 :
b0 .
b1010010 0
1'
#8700
b111001 -
0'
#8750
b110111 #
b110111 8
b111001 &
b111001 9
b111001 @
b100000000001001101110000 "
b100000000001001101110000 7
b1001101110000 A
b111110110100110000000000000000 :
b1010011 0
b0 .
1'
#8800
b111010 -
0'
#8850
b111000 #
b111000 8
b111010 &
b111010 9
b111010 @
b100000000001001110000000 "
b100000000001001110000000 7
b1001110000000 A
b111111000110000000000000000000 :
b0 .
b1010100 0
1'
#8900
b111011 -
0'
#8950
b111001 #
b111001 8
b111011 &
b111011 9
b111011 @
b100000000001001110010000 "
b100000000001001110010000 7
b1001110010000 A
b111111010111010000000000000000 :
b1010101 0
b0 .
1'
#9000
b111100 -
0'
#9050
b111010 #
b111010 8
b111100 &
b111100 9
b111100 @
b100000000001001110100000 "
b100000000001001110100000 7
b1001110100000 A
b111111101000100000000000000000 :
b0 .
b1010110 0
1'
#9100
b111101 -
0'
#9150
b111011 #
b111011 8
b111101 &
b111101 9
b111101 @
b100000000001001110110000 "
b100000000001001110110000 7
b1001110110000 A
b111111111001110000000000000000 :
b1010111 0
b0 .
1'
#9200
b111110 -
0'
#9250
b111100 #
b111100 8
b111110 &
b111110 9
b111110 @
b100000000001001111000000 "
b100000000001001111000000 7
b1001111000000 A
b1000000001011000000000000000000 :
b0 .
b1011000 0
1'
#9300
b111111 -
0'
#9350
b111101 #
b111101 8
b111111 &
b111111 9
b111111 @
b100000000001001111010000 "
b100000000001001111010000 7
b1001111010000 A
b1000000011100010000000000000000 :
b1011001 0
b0 .
1'
#9400
b1000000 -
0'
#9450
b111110 #
b111110 8
b1000000 &
b1000000 9
b1000000 @
b100000000001001111100000 "
b100000000001001111100000 7
b1001111100000 A
b1000000101101100000000000000000 :
b0 .
b1011010 0
1'
#9500
b1000001 -
0'
#9550
b111111 #
b111111 8
b1000001 &
b1000001 9
b1000001 @
b100000000001001111110000 "
b100000000001001111110000 7
b1001111110000 A
b1000000111110110000000000000000 :
b1011011 0
b0 .
1'
#9600
b1000010 -
0'
#9650
0!
0>
1$
0%
b0 =
b100000000001010000000000 "
b100000000001010000000000 7
b1010000000000 A
b1000001010000000000000000000000 :
b0 .
b1011100 0
1'
#9700
b1000000 J
b110000 I
b10000000000000 K
b10001010000000000000000 F
b1101010000000000000000 E
b10000000000000000000000 D
b1100000000000000000000 C
b1000000000000000000000000000000 H
b110000000000000000000000000000 G
b1010000000001000000 B
b10 /
b1000011 -
0'
#9750
b10 ,
b1011101 0
b0 .
1'
#9800
b0 4
b11 5
b1010000 6
1)
b1010000000001000000 (
b1010000000001000000 2
0'
#9850
b10000000001010000000000 "
b10000000001010000000000 7
b1010000000001000000 <
b1 ;
b0 ,
b0 .
b1011110 0
1'
#9900
0)
0'
#9950
b1011111 0
b0 .
1'
#10000
b1 5
b0 6
1)
b110000000000000000000000000000 (
b110000000000000000000000000000 2
0'
#10050
b1011001010000000000000000000000 :
b10 ;
b0 .
b1100000 0
1'
#10100
0)
0'
#10150
b1100001 0
b0 .
1'
#10200
1)
b1000000000000000000000000000000 (
b1000000000000000000000000000000 2
0'
#10250
b1110000000000000000000000000000 :
b11 ;
b0 .
b1100010 0
1'
#10300
0)
0'
#10350
b1100011 0
b0 .
1'
#10400
1)
b1100000000000000000000 (
b1100000000000000000000 2
0'
#10450
b100 ;
b0 .
b1100100 0
1'
#10500
0)
0'
#10550
b1100101 0
b0 .
1'
#10600
1)
b10000000000000000000000 (
b10000000000000000000000 2
0'
#10650
b101 ;
b0 .
b1100110 0
1'
#10700
0)
0'
#10750
b1100111 0
b0 .
1'
#10800
b1010000 6
1)
b1101010000000000000000 (
b1101010000000000000000 2
0'
#10850
b110 ;
b0 .
b1101000 0
1'
#10900
0)
0'
#10950
b1101001 0
b0 .
1'
#11000
1)
b10001010000000000000000 (
b10001010000000000000000 2
0'
#11050
b111 ;
b0 .
b1101010 0
1'
#11100
0)
0'
#11150
b1101011 0
b0 .
1'
#11200
b10 6
1)
b10000000000000 (
b10000000000000 2
0'
#11250
b10000000010000000000000 "
b10000000010000000000000 7
b10000000000000 A
b1000 ;
b0 .
b1101100 0
1'
#11300
0)
0'
#11350
b1101101 0
b0 .
1'
#11400
b1100000 4
b0 6
1)
b110000 (
b110000 2
0'
#11450
b1001 ;
b0 .
b1101110 0
1'
#11500
0)
0'
#11550
b1101111 0
b0 .
1'
#11600
b0 4
b11 5
1)
b1000000 (
b1000000 2
0'
#11650
0$
b1 =
b0 ;
b0 .
b1110000 0
1'
#11700
b0 -
0)
0'
#11750
b0 #
b0 8
b0 &
b0 9
1%
b10 =
b0 @
b1110001 0
b0 .
1'
#11800
b1 -
0'
#11850
b1 &
b1 9
b1 @
b1 ,
b0 .
b1110010 0
1'
#11900
b10 -
0'
#11950
b10 &
b10 9
b11 ,
b10 @
b1110011 0
b0 .
1'
#12000
b11 -
0'
#12050
b1 #
b1 8
b11 &
b11 9
b11 @
1!
1>
b10000000010000000110000 "
b10000000010000000110000 7
b10000000110000 A
b1110000100001010000000000000000 :
b0 .
b1110100 0
1'
#12100
b100 -
0'
#12150
b10 #
b10 8
b100 &
b100 9
b100000000001000000010000 +
b100000000001000000010000 3
b100 @
b10000000010000001100000 "
b10000000010000001100000 7
b10000001100000 A
b1110001000010100000000000000000 :
b1110101 0
b0 .
1'
#12200
b101 -
0'
#12250
b11 #
b11 8
b101 &
b101 9
b101 @
b10000000010000010010000 "
b10000000010000010010000 7
b10000010010000 A
b1110001100011110000000000000000 :
b100000000001000000100000 +
b100000000001000000100000 3
b0 .
b1110110 0
1'
#12300
b110 -
0'
#12350
b100 #
b100 8
b110 &
b110 9
b100000000001000000110000 +
b100000000001000000110000 3
b110 @
b10000000010000011000000 "
b10000000010000011000000 7
b10000011000000 A
b1110010000101000000000000000000 :
b1110111 0
b0 .
1'
#12400
b111 -
0'
#12450
b101 #
b101 8
b111 &
b111 9
b111 @
b10000000010000011110000 "
b10000000010000011110000 7
b10000011110000 A
b1110010100110010000000000000000 :
b100000000001000001000000 +
b100000000001000001000000 3
b0 .
b1111000 0
1'
#12500
b1000 -
0'
#12550
b110 #
b110 8
b1000 &
b1000 9
b100000000001000001010000 +
b100000000001000001010000 3
b1000 @
b10000000010000100100000 "
b10000000010000100100000 7
b10000100100000 A
b1110011000111100000000000000000 :
b1111001 0
b0 .
1'
#12600
b1001 -
0'
#12650
b111 #
b111 8
b1001 &
b1001 9
b1001 @
b10000000010000101010000 "
b10000000010000101010000 7
b10000101010000 A
b1110011101000110000000000000000 :
b100000000001000001100000 +
b100000000001000001100000 3
b0 .
b1111010 0
1'
#12700
b1010 -
0'
#12750
b1000 #
b1000 8
b1010 &
b1010 9
b100000000001000001110000 +
b100000000001000001110000 3
b1010 @
b10000000010000110000000 "
b10000000010000110000000 7
b10000110000000 A
b1110100001010000000000000000000 :
b1111011 0
b0 .
1'
#12800
b1011 -
0'
#12850
b1001 #
b1001 8
b1011 &
b1011 9
b1011 @
b10000000010000110110000 "
b10000000010000110110000 7
b10000110110000 A
b1110100101011010000000000000000 :
b100000000001000010000000 +
b100000000001000010000000 3
b0 .
b1111100 0
1'
#12900
b1100 -
0'
#12950
b1010 #
b1010 8
b1100 &
b1100 9
b100000000001000010010000 +
b100000000001000010010000 3
b1100 @
b10000000010000111100000 "
b10000000010000111100000 7
b10000111100000 A
b1110101001100100000000000000000 :
b1111101 0
b0 .
1'
#13000
b1101 -
0'
#13050
b1011 #
b1011 8
b1101 &
b1101 9
b1101 @
b10000000010001000010000 "
b10000000010001000010000 7
b10001000010000 A
b1110101101101110000000000000000 :
b100000000001000010100000 +
b100000000001000010100000 3
b0 .
b1111110 0
1'
#13100
b1110 -
0'
#13150
b1100 #
b1100 8
b1110 &
b1110 9
b100000000001000010110000 +
b100000000001000010110000 3
b1110 @
b10000000010001001000000 "
b10000000010001001000000 7
b10001001000000 A
b1110110001111000000000000000000 :
b1111111 0
b0 .
1'
#13200
b1111 -
0'
#13250
b1101 #
b1101 8
b1111 &
b1111 9
b1111 @
b10000000010001001110000 "
b10000000010001001110000 7
b10001001110000 A
b1110110110000010000000000000000 :
b100000000001000011000000 +
b100000000001000011000000 3
b0 .
b10000000 0
1'
#13300
b10000 -
0'
#13350
b1110 #
b1110 8
b10000 &
b10000 9
b100000000001000011010000 +
b100000000001000011010000 3
b10000 @
b10000000010001010100000 "
b10000000010001010100000 7
b10001010100000 A
b1110111010001100000000000000000 :
b10000001 0
b0 .
1'
#13400
b10001 -
0'
#13450
b1111 #
b1111 8
b10001 &
b10001 9
b10001 @
b10000000010001011010000 "
b10000000010001011010000 7
b10001011010000 A
b1110111110010110000000000000000 :
b100000000001000011100000 +
b100000000001000011100000 3
b0 .
b10000010 0
1'
#13500
b10010 -
0'
#13550
b10000 #
b10000 8
b10010 &
b10010 9
b100000000001000011110000 +
b100000000001000011110000 3
b10010 @
b10000000010001100000000 "
b10000000010001100000000 7
b10001100000000 A
b1111000010100000000000000000000 :
b10000011 0
b0 .
1'
#13600
b10011 -
0'
#13650
b10001 #
b10001 8
b10011 &
b10011 9
b10011 @
b10000000010001100110000 "
b10000000010001100110000 7
b10001100110000 A
b1111000110101010000000000000000 :
b100000000001000100000000 +
b100000000001000100000000 3
b0 .
b10000100 0
1'
#13700
b10100 -
0'
#13750
b10010 #
b10010 8
b10100 &
b10100 9
b100000000001000100010000 +
b100000000001000100010000 3
b10100 @
b10000000010001101100000 "
b10000000010001101100000 7
b10001101100000 A
b1111001010110100000000000000000 :
b10000101 0
b0 .
1'
#13800
b10101 -
0'
#13850
b10011 #
b10011 8
b10101 &
b10101 9
b10101 @
b10000000010001110010000 "
b10000000010001110010000 7
b10001110010000 A
b1111001110111110000000000000000 :
b100000000001000100100000 +
b100000000001000100100000 3
b0 .
b10000110 0
1'
#13900
b10110 -
0'
#13950
b10100 #
b10100 8
b10110 &
b10110 9
b100000000001000100110000 +
b100000000001000100110000 3
b10110 @
b10000000010001111000000 "
b10000000010001111000000 7
b10001111000000 A
b1111010011001000000000000000000 :
b10000111 0
b0 .
1'
#14000
b10111 -
0'
#14050
b10101 #
b10101 8
b10111 &
b10111 9
b10111 @
b10000000010001111110000 "
b10000000010001111110000 7
b10001111110000 A
b1111010111010010000000000000000 :
b100000000001000101000000 +
b100000000001000101000000 3
b0 .
b10001000 0
1'
#14100
b11000 -
0'
#14150
b10110 #
b10110 8
b11000 &
b11000 9
b100000000001000101010000 +
b100000000001000101010000 3
b11000 @
b10000000010010000100000 "
b10000000010010000100000 7
b10010000100000 A
b1111011011011100000000000000000 :
b10001001 0
b0 .
1'
#14200
b11001 -
0'
#14250
b10111 #
b10111 8
b11001 &
b11001 9
b11001 @
b10000000010010001010000 "
b10000000010010001010000 7
b10010001010000 A
b1111011111100110000000000000000 :
b100000000001000101100000 +
b100000000001000101100000 3
b0 .
b10001010 0
1'
#14300
b11010 -
0'
