raster-core/wave.vcd
$date
	Fri Oct 31 04:14:57 2025
$end
$version
	Icarus Verilog
$end
$timescale
	100ps
$end
$scope module tb_raster_core $end
$var wire 1 ! wch_en $end
$var wire 32 " wch_data [31:0] $end
$var wire 9 # wch_addr [8:0] $end
$var wire 1 $ ready $end
$var wire 1 % rch_en $end
$var wire 9 & rch_addr [8:0] $end
$var wire 1 ' output_valid $end
$var wire 16 ( output_data [15:0] $end
$var reg 1 ) clk $end
$var reg 32 * data [31:0] $end
$var reg 1 + is_handshake $end
$var reg 1 , nreset $end
$var reg 1 - output_handshake $end
$var reg 32 . rch_data [31:0] $end
$var reg 1 / read_valid_pipeline $end
$var integer 32 0 cycle_count [31:0] $end
$var integer 32 1 i [31:0] $end
$var integer 32 2 test_case [31:0] $end
$var integer 32 3 timeout_counter [31:0] $end
$scope module dut $end
$var wire 1 ) clk $end
$var wire 1 4 comb_skip_triangle $end
$var wire 5 5 core_id_bits [4:0] $end
$var wire 32 6 data [31:0] $end
$var wire 1 + is_handshake $end
$var wire 1 , nreset $end
$var wire 1 - output_handshake $end
$var wire 9 7 rch_addr [8:0] $end
$var wire 32 8 rch_data [31:0] $end
$var wire 1 9 should_write_pixel $end
$var wire 1 : valid $end
$var wire 1 ! wch_en $end
$var wire 7 ; y_start [6:0] $end
$var wire 7 < y_end [6:0] $end
$var wire 32 = wch_data [31:0] $end
$var wire 9 > wch_addr [8:0] $end
$var wire 1 $ ready $end
$var wire 1 % rch_en $end
$var wire 16 ? output_data [15:0] $end
$var wire 32 @ lambda_sum [31:0] $end
$var wire 1 A comb_end_triangle $end
$var reg 4 B data_it [3:0] $end
$var reg 32 C header [31:0] $end
$var reg 1 D is_end_triangle $end
$var reg 1 E latency_counter $end
$var reg 1 ' output_valid $end
$var reg 2 F rasterizer_state [1:0] $end
$var reg 1 G skip_triangle $end
$var reg 9 H x_it [8:0] $end
$var reg 16 I z_zero [15:0] $end
$upscope $end
$scope task receive_output_data $end
$var integer 32 J max_transfers [31:0] $end
$var integer 32 K transfer_count [31:0] $end
$var integer 32 L wait_count [31:0] $end
$upscope $end
$scope task send_triangle_data $end
$var reg 32 M header_data [31:0] $end
$var reg 32 N lambda_diff_0 [31:0] $end
$var reg 32 O lambda_diff_1 [31:0] $end
$var reg 32 P lambda_diff_2 [31:0] $end
$var reg 32 Q lambda_diff_3 [31:0] $end
$var reg 32 R lambda_zero_0 [31:0] $end
$var reg 32 S lambda_zero_1 [31:0] $end
$var reg 16 T z_diff_0 [15:0] $end
$var reg 16 U z_diff_1 [15:0] $end
$var reg 16 V z_zero_data [15:0] $end
$upscope $end
$scope task wait_for_completion $end
$upscope $end
$upscope $end
$enddefinitions $end
#0
$dumpvars
bx V
bx U
bx T
bx S
bx R
bx Q
bx P
bx O
bx N
bx M
bx L
bx K
bx J
bx I
bx H
xG
bx F
xE
xD
bx C
bx B
0A
bx @
b1000000000000 ?
bx >
b0xxxxxxxxxxxxxxxxxxxxxxxxxxxx =
b1 <
b0 ;
x:
x9
b0 8
bx 7
b0 6
b1 5
04
b0 3
b0 2
b1000000000 1
b0 0
x/
b0 .
0-
0,
0+
b0 *
0)
b1000000000000 (
x'
bx &
x%
x$
bx #
b0xxxxxxxxxxxxxxxxxxxxxxxxxxxx "
x!
$end
#50
b0 #
b0 >
0!
09
0:
0'
0E
1$
0%
b0 F
0D
0G
b0 B
b0 &
b0 7
b0 H
b0 "
b0 =
b0 I
b0 @
b0 C
0/
b1 1
1)
#100
0)
#150
b1 1
1)
#200
0)
#250
b1 1
1)
#300
0)
#350
b1 1
1)
#400
0)
#450
b1 1
1)
#500
1,
0)
#550
b1 3
1)
#600
0)
#650
b10 3
1)
#700
0)
#750
b11 3
1)
#800
0)
#850
b100 3
1)
#900
0)
#950
b101 3
1)
#1000
b100000 U
b10000 T
b1000000000000 V
b1001010000000000000000 Q
b101010000000000000000 P
b1000000000000000000000 O
b100000000000000000000 N
b100000000000000000000000000000 S
b10000000000000000000000000000 R
b100010000000010000000 M
b1 2
0)
#1050
b110 3
1)
#1100
b101 <
1+
b100010000000010000000 *
b100010000000010000000 6
0)
#1150
b10000000000000000 "
b10000000000000000 =
b100010000000010000000 C
b1 B
b111 3
1)
#1200
0+
0)
#1250
b1000 3
1)
#1300
b1 <
1+
b10000000000000000000000000000 *
b10000000000000000000000000000 6
0)
#1350
b10000000000000000000000000000 @
b10 B
b1001 3
1)
#1400
0+
0)
#1450
b1010 3
1)
#1500
1+
b100000000000000000000000000000 *
b100000000000000000000000000000 6
0)
#1550
b110000000000000000000000000000 @
b11 B
b1011 3
1)
#1600
0+
0)
#1650
b1100 3
1)
#1700
1+
b100000000000000000000 *
b100000000000000000000 6
0)
#1750
b100 B
b1101 3
1)
#1800
0+
0)
#1850
b1110 3
1)
#1900
1+
b1000000000000000000000 *
b1000000000000000000000 6
0)
#1950
b101 B
b1111 3
1)
#2000
0+
0)
#2050
b10000 3
1)
#2100
1+
b101010000000000000000 *
b101010000000000000000 6
0)
#2150
b110 B
b10001 3
1)
#2200
0+
0)
#2250
b10010 3
1)
#2300
1+
b1001010000000000000000 *
b1001010000000000000000 6
0)
#2350
b111 B
b10011 3
1)
#2400
0+
0)
#2450
b10100 3
1)
#2500
1+
b1000000000000 *
b1000000000000 6
0)
#2550
b10001000000000000 "
b10001000000000000 =
b1000000000000 I
b1000 B
b10101 3
1)
#2600
0+
0)
#2650
b10110 3
1)
#2700
14
1A
b100000 ;
1+
b10000 *
b10000 6
0)
#2750
b1001 B
b10111 3
1)
#2800
0+
0)
#2850
b11000 3
1)
#2900
b1000000 ;
1+
b100000 *
b100000 6
0)
#2950
0$
b1 F
b0 B
b11001 3
1)
#3000
0+
0)
#3050
1%
b10 F
b10001000000010000 "
b10001000000010000 =
b1000000010000 I
b110000001001010000000000000000 @
b11010 3
1)
#3100
b1 0
0)
#3150
1/
b1 &
b1 7
b1 H
b11011 3
1)
#3200
b10 0
0)
#3250
1!
19
b10 &
b10 7
b10 H
b11100 3
1)
#3300
b11 0
0)
#3350
0!
09
b1 #
b1 >
b1000100010001 (
b1000100010001 ?
b10001000100010001000100010001 .
b10001000100010001000100010001 8
b11 &
b11 7
b11 H
b10001000000100000 "
b10001000000100000 =
b1000000100000 I
b110000011010100000000000000000 @
b11101 3
1)
#3400
b100 0
0)
#3450
b10 #
b10 >
b1001000100010 (
b1001000100010 ?
b100 &
b100 7
b100 H
b10001000000110000 "
b10001000000110000 =
b1000000110000 I
b110000101011110000000000000000 @
b100010001000100010001000100010 .
b100010001000100010001000100010 8
b11110 3
1)
#3500
b101 0
0)
#3550
b11 #
b11 >
b1001100110011 (
b1001100110011 ?
b110011001100110011001100110011 .
b110011001100110011001100110011 8
b101 &
b101 7
b101 H
b10001000001000000 "
b10001000001000000 =
b1000001000000 I
b110000111101000000000000000000 @
b11111 3
1)
#3600
b110 0
0)
#3650
b100 #
b100 >
b1010001000100 (
b1010001000100 ?
b110 &
b110 7
b110 H
b10001000001010000 "
b10001000001010000 =
b1000001010000 I
b110001001110010000000000000000 @
b1000100010001000100010001000100 .
b1000100010001000100010001000100 8
b100000 3
1)
#3700
b111 0
0)
#3750
b101 #
b101 >
b1010101010101 (
b1010101010101 ?
b1010101010101010101010101010101 .
b1010101010101010101010101010101 8
b111 &
b111 7
b111 H
b10001000001100000 "
b10001000001100000 =
b1000001100000 I
b110001011111100000000000000000 @
b100001 3
1)
#3800
b1000 0
0)
#3850
b110 #
b110 >
b1011001100110 (
b1011001100110 ?
b1000 &
b1000 7
b1000 H
b10001000001110000 "
b10001000001110000 =
b1000001110000 I
b110001110000110000000000000000 @
b1100110011001100110011001100110 .
b1100110011001100110011001100110 8
b100010 3
1)
#3900
b1001 0
0)
#3950
b111 #
b111 >
b1011101110111 (
b1011101110111 ?
b1110111011101110111011101110111 .
b1110111011101110111011101110111 8
b1001 &
b1001 7
b1001 H
b10001000010000000 "
b10001000010000000 =
b1000010000000 I
b110010000010000000000000000000 @
b100011 3
1)
#4000
b1010 0
0)
#4050
b1000 #
b1000 >
b1100010001000 (
b1100010001000 ?
b1010 &
b1010 7
b1010 H
b10001000010010000 "
b10001000010010000 =
b1000010010000 I
b110010010011010000000000000000 @
b10001000100010001000100010001000 .
b10001000100010001000100010001000 8
b100100 3
1)
#4100
b1011 0
0)
#4150
b1001 #
b1001 >
b1100110011001 (
b1100110011001 ?
b10011001100110011001100110011001 .
b10011001100110011001100110011001 8
b1011 &
b1011 7
b1011 H
b10001000010100000 "
b10001000010100000 =
b1000010100000 I
b110010100100100000000000000000 @
b100101 3
1)
#4200
b1100 0
0)
#4250
b1010 #
b1010 >
b1101010101010 (
b1101010101010 ?
b1100 &
b1100 7
b1100 H
b10001000010110000 "
b10001000010110000 =
b1000010110000 I
b110010110101110000000000000000 @
b10101010101010101010101010101010 .
b10101010101010101010101010101010 8
b100110 3
1)
#4300
b1101 0
0)
#4350
b1011 #
b1011 >
b1101110111011 (
b1101110111011 ?
b10111011101110111011101110111011 .
b10111011101110111011101110111011 8
b1101 &
b1101 7
b1101 H
b10001000011000000 "
b10001000011000000 =
b1000011000000 I
b110011000111000000000000000000 @
b100111 3
1)
#4400
b1110 0
0)
#4450
b1100 #
b1100 >
b1110011001100 (
b1110011001100 ?
b1110 &
b1110 7
b1110 H
b10001000011010000 "
b10001000011010000 =
b1000011010000 I
b110011011000010000000000000000 @
b11001100110011001100110011001100 .
b11001100110011001100110011001100 8
b101000 3
1)
#4500
b1111 0
0)
#4550
b1101 #
b1101 >
b1110111011101 (
b1110111011101 ?
b11011101110111011101110111011101 .
b11011101110111011101110111011101 8
b1111 &
b1111 7
b1111 H
b10001000011100000 "
b10001000011100000 =
b1000011100000 I
b110011101001100000000000000000 @
b101001 3
1)
#4600
b10000 0
0)
#4650
b1110 #
b1110 >
b1111011101110 (
b1111011101110 ?
b10000 &
b10000 7
b10000 H
b10001000011110000 "
b10001000011110000 =
b1000011110000 I
b110011111010110000000000000000 @
b11101110111011101110111011101110 .
b11101110111011101110111011101110 8
b101010 3
1)
#4700
b10001 0
0)
#4750
b1111 #
b1111 >
b1111111111111 (
b1111111111111 ?
b11111111111111111111111111111111 .
b11111111111111111111111111111111 8
b10001 &
b10001 7
b10001 H
b10001000100000000 "
b10001000100000000 =
b1000100000000 I
b110100001100000000000000000000 @
b101011 3
1)
#4800
b10010 0
0)
#4850
b10000 #
b10000 >
b1001000110100 (
b1001000110100 ?
b10010 &
b10010 7
b10010 H
b10001000100010000 "
b10001000100010000 =
b1000100010000 I
b110100011101010000000000000000 @
b10010001101000101011001111000 .
b10010001101000101011001111000 8
b101100 3
1)
#4900
b10011 0
0)
#4950
b10001 #
b10001 >
b1011101100101 (
b1011101100101 ?
b10000111011001010100001100100001 .
b10000111011001010100001100100001 8
b10011 &
b10011 7
b10011 H
b10001000100100000 "
b10001000100100000 =
b1000100100000 I
b110100101110100000000000000000 @
b101101 3
1)
#5000
b10100 0
0)
#5050
b10010 #
b10010 >
b1111011011100 (
b1111011011100 ?
b10100 &
b10100 7
b10100 H
b10001000100110000 "
b10001000100110000 =
b1000100110000 I
b110100111111110000000000000000 @
b11111110110111001011101010011000 .
b11111110110111001011101010011000 8
b101110 3
1)
#5100
b10101 0
0)
#5150
b10011 #
b10011 >
b1101111001101 (
b1101111001101 ?
b10101011110011011110111100000001 .
b10101011110011011110111100000001 8
b10101 &
b10101 7
b10101 H
b10001000101000000 "
b10001000101000000 =
b1000101000000 I
b110101010001000000000000000000 @
b101111 3
1)
#5200
b10110 0
0)
#5250
b10100 #
b10100 >
b1001101010111 (
b1001101010111 ?
b10110 &
b10110 7
b10110 H
b10001000101010000 "
b10001000101010000 =
b1000101010000 I
b110101100010010000000000000000 @
b10011010101111001101111011111 .
b10011010101111001101111011111 8
b110000 3
1)
#5300
b10111 0
0)
#5350
b10101 #
b10101 >
b1010001101000 (
b1010001101000 ?
b100100011010001010110011100000 .
b100100011010001010110011100000 8
b10111 &
b10111 7
b10111 H
b10001000101100000 "
b10001000101100000 =
b1000101100000 I
b110101110011100000000000000000 @
b110001 3
1)
#5400
b11000 0
0)
#5450
b10110 #
b10110 >
b1000011110000 (
b1000011110000 ?
b11000 &
b11000 7
b11000 H
b10001000101110000 "
b10001000101110000 =
b1000101110000 I
b110110000100110000000000000000 @
b11110000111100001111000011110000 .
b11110000111100001111000011110000 8
b110010 3
1)
#5500
b11001 0
0)
#5550
1!
19
b10111 #
b10111 >
b1111100001111 (
b1111100001111 ?
b1111000011110000111100001111 .
b1111000011110000111100001111 8
b11001 &
b11001 7
b11001 H
b10001000110000000 "
b10001000110000000 =
b1000110000000 I
b110110010110000000000000000000 @
b110011 3
1)
#5600
b11010 0
0)
#5650
0!
09
b11000 #
b11000 >
b1010110100101 (
b1010110100101 ?
b11010 &
b11010 7
b11010 H
b10001000110010000 "
b10001000110010000 =
b1000110010000 I
b110110100111010000000000000000 @
b10100101101001011010010110100101 .
b10100101101001011010010110100101 8
b110100 3
1)
#5700
b11011 0
0)
#5750
b11001 #
b11001 >
b1101001011010 (
b1101001011010 ?
b1011010010110100101101001011010 .
b1011010010110100101101001011010 8
b11011 &
b11011 7
b11011 H
b10001000110100000 "
b10001000110100000 =
b1000110100000 I
b110110111000100000000000000000 @
b110101 3
1)
#5800
b11100 0
0)
#5850
b11010 #
b11010 >
b1001111000011 (
b1001111000011 ?
b11100 &
b11100 7
b11100 H
b10001000110110000 "
b10001000110110000 =
b1000110110000 I
b110111001001110000000000000000 @
b11000011110000111100001111000011 .
b11000011110000111100001111000011 8
b110110 3
1)
#5900
b11101 0
0)
#5950
b11011 #
b11011 >
b1110000111100 (
b1110000111100 ?
b111100001111000011110000111100 .
b111100001111000011110000111100 8
b11101 &
b11101 7
b11101 H
b10001000111000000 "
b10001000111000000 =
b1000111000000 I
b110111011011000000000000000000 @
b110111 3
1)
#6000
b11110 0
0)
#6050
b11100 #
b11100 >
b1111100000000 (
b1111100000000 ?
b11110 &
b11110 7
b11110 H
b10001000111010000 "
b10001000111010000 =
b1000111010000 I
b110111101100010000000000000000 @
b11111111000000001111111100000000 .
b11111111000000001111111100000000 8
b111000 3
1)
#6100
b11111 0
0)
#6150
1!
19
b11101 #
b11101 >
b1000011111111 (
b1000011111111 ?
b111111110000000011111111 .
b111111110000000011111111 8
b11111 &
b11111 7
b11111 H
b10001000111100000 "
b10001000111100000 =
b1000111100000 I
b110111111101100000000000000000 @
b111001 3
1)
#6200
b100000 0
0)
#6250
0!
09
b11110 #
b11110 >
b1111111111111 (
b1111111111111 ?
b100000 &
b100000 7
b100000 H
b10001000111110000 "
b10001000111110000 =
b1000111110000 I
b111000001110110000000000000000 @
b11111111111111111111111111111111 .
b11111111111111111111111111111111 8
b111010 3
1)
#6300
b100001 0
0)
#6350
1!
19
b11111 #
b11111 >
b1000000000000 (
b1000000000000 ?
b0 .
b0 8
b100001 &
b100001 7
b100001 H
b10001001000000000 "
b10001001000000000 =
b1001000000000 I
b111000100000000000000000000000 @
b111011 3
1)
#6400
b100010 0
0)
#6450
b100000 #
b100000 >
b100010 &
b100010 7
b100010 H
b10001001000010000 "
b10001001000010000 =
b1001000010000 I
b111000110001010000000000000000 @
b111100 3
1)
#6500
b100011 0
0)
#6550
b100001 #
b100001 >
b100011 &
b100011 7
b100011 H
b10001001000100000 "
b10001001000100000 =
b1001000100000 I
b111001000010100000000000000000 @
b111101 3
1)
#6600
b100100 0
0)
#6650
b100010 #
b100010 >
b100100 &
b100100 7
b100100 H
b10001001000110000 "
b10001001000110000 =
b1001000110000 I
b111001010011110000000000000000 @
b111110 3
1)
#6700
b100101 0
0)
#6750
b100011 #
b100011 >
b100101 &
b100101 7
b100101 H
b10001001001000000 "
b10001001001000000 =
b1001001000000 I
b111001100101000000000000000000 @
b111111 3
1)
#6800
b100110 0
0)
#6850
b100100 #
b100100 >
b100110 &
b100110 7
b100110 H
b10001001001010000 "
b10001001001010000 =
b1001001010000 I
b111001110110010000000000000000 @
b1000000 3
1)
#6900
b100111 0
0)
#6950
b100101 #
b100101 >
b100111 &
b100111 7
b100111 H
b10001001001100000 "
b10001001001100000 =
b1001001100000 I
b111010000111100000000000000000 @
b1000001 3
1)
#7000
b101000 0
0)
#7050
b100110 #
b100110 >
b101000 &
b101000 7
b101000 H
b10001001001110000 "
b10001001001110000 =
b1001001110000 I
b111010011000110000000000000000 @
b1000010 3
1)
#7100
b101001 0
0)
#7150
b100111 #
b100111 >
b101001 &
b101001 7
b101001 H
b10001001010000000 "
b10001001010000000 =
b1001010000000 I
b111010101010000000000000000000 @
b1000011 3
1)
#7200
b101010 0
0)
#7250
b101000 #
b101000 >
b101010 &
b101010 7
b101010 H
b10001001010010000 "
b10001001010010000 =
b1001010010000 I
b111010111011010000000000000000 @
b1000100 3
1)
#7300
b101011 0
0)
#7350
b101001 #
b101001 >
b101011 &
b101011 7
b101011 H
b10001001010100000 "
b10001001010100000 =
b1001010100000 I
b111011001100100000000000000000 @
b1000101 3
1)
#7400
b101100 0
0)
#7450
b101010 #
b101010 >
b101100 &
b101100 7
b101100 H
b10001001010110000 "
b10001001010110000 =
b1001010110000 I
b111011011101110000000000000000 @
b1000110 3
1)
#7500
b101101 0
0)
#7550
b101011 #
b101011 >
b101101 &
b101101 7
b101101 H
b10001001011000000 "
b10001001011000000 =
b1001011000000 I
b111011101111000000000000000000 @
b1000111 3
1)
#7600
b101110 0
0)
#7650
b101100 #
b101100 >
b101110 &
b101110 7
b101110 H
b10001001011010000 "
b10001001011010000 =
b1001011010000 I
b111100000000010000000000000000 @
b1001000 3
1)
#7700
b101111 0
0)
#7750
b101101 #
b101101 >
b101111 &
b101111 7
b101111 H
b10001001011100000 "
b10001001011100000 =
b1001011100000 I
b111100010001100000000000000000 @
b1001001 3
1)
#7800
b110000 0
0)
#7850
b101110 #
b101110 >
b110000 &
b110000 7
b110000 H
b10001001011110000 "
b10001001011110000 =
b1001011110000 I
b111100100010110000000000000000 @
b1001010 3
1)
#7900
b110001 0
0)
#7950
b101111 #
b101111 >
b110001 &
b110001 7
b110001 H
b10001001100000000 "
b10001001100000000 =
b1001100000000 I
b111100110100000000000000000000 @
b1001011 3
1)
#8000
b110010 0
0)
#8050
b110000 #
b110000 >
b110010 &
b110010 7
b110010 H
b10001001100010000 "
b10001001100010000 =
b1001100010000 I
b111101000101010000000000000000 @
b1001100 3
1)
#8100
b110011 0
0)
#8150
b110001 #
b110001 >
b110011 &
b110011 7
b110011 H
b10001001100100000 "
b10001001100100000 =
b1001100100000 I
b111101010110100000000000000000 @
b1001101 3
1)
#8200
b110100 0
0)
#8250
b110010 #
b110010 >
b110100 &
b110100 7
b110100 H
b10001001100110000 "
b10001001100110000 =
b1001100110000 I
b111101100111110000000000000000 @
b1001110 3
1)
#8300
b110101 0
0)
#8350
b110011 #
b110011 >
b110101 &
b110101 7
b110101 H
b10001001101000000 "
b10001001101000000 =
b1001101000000 I
b111101111001000000000000000000 @
b1001111 3
1)
#8400
b110110 0
0)
#8450
b110100 #
b110100 >
b110110 &
b110110 7
b110110 H
b10001001101010000 "
b10001001101010000 =
b1001101010000 I
b111110001010010000000000000000 @
b1010000 3
1)
#8500
b110111 0
0)
#8550
b110101 #
b110101 >
b110111 &
b110111 7
b110111 H
b10001001101100000 "
b10001001101100000 =
b1001101100000 I
b111110011011100000000000000000 @
b1010001 3
1)
#8600
b111000 0
0)
#8650
b110110 #
b110110 >
b111000 &
b111000 7
b111000 H
b10001001101110000 "
b10001001101110000 =
b1001101110000 I
b111110101100110000000000000000 @
b1010010 3
1)
#8700
b111001 0
0)
#8750
b110111 #
b110111 >
b111001 &
b111001 7
b111001 H
b10001001110000000 "
b10001001110000000 =
b1001110000000 I
b111110111110000000000000000000 @
b1010011 3
1)
#8800
b111010 0
0)
#8850
b111000 #
b111000 >
b111010 &
b111010 7
b111010 H
b10001001110010000 "
b10001001110010000 =
b1001110010000 I
b111111001111010000000000000000 @
b1010100 3
1)
#8900
b111011 0
0)
#8950
b111001 #
b111001 >
b111011 &
b111011 7
b111011 H
b10001001110100000 "
b10001001110100000 =
b1001110100000 I
b111111100000100000000000000000 @
b1010101 3
1)
#9000
b111100 0
0)
#9050
b111010 #
b111010 >
b111100 &
b111100 7
b111100 H
b10001001110110000 "
b10001001110110000 =
b1001110110000 I
b111111110001110000000000000000 @
b1010110 3
1)
#9100
b111101 0
0)
#9150
b111011 #
b111011 >
b111101 &
b111101 7
b111101 H
b10001001111000000 "
b10001001111000000 =
b1001111000000 I
b1000000000011000000000000000000 @
b1010111 3
1)
#9200
b111110 0
0)
#9250
b111100 #
b111100 >
b111110 &
b111110 7
b111110 H
b10001001111010000 "
b10001001111010000 =
b1001111010000 I
b1000000010100010000000000000000 @
b1011000 3
1)
#9300
b111111 0
0)
#9350
b111101 #
b111101 >
b111111 &
b111111 7
b111111 H
b10001001111100000 "
b10001001111100000 =
b1001111100000 I
b1000000100101100000000000000000 @
b1011001 3
1)
#9400
b1000000 0
0)
#9450
b111110 #
b111110 >
b1000000 &
b1000000 7
b1000000 H
b10001001111110000 "
b10001001111110000 =
b1001111110000 I
b1000000110110110000000000000000 @
b1011010 3
1)
#9500
b1000001 0
0)
#9550
b111111 #
b111111 >
b1000001 &
b1000001 7
b1000001 H
b10001010000000000 "
b10001010000000000 =
b1010000000000 I
b1000001001000000000000000000000 @
b1011011 3
1)
#9600
b1000010 0
0)
#9650
b1000000 #
b1000000 >
b1000010 &
b1000010 7
b1000010 H
b10001010000010000 "
b10001010000010000 =
b1010000010000 I
b1000001011001010000000000000000 @
b1011100 3
1)
#9700
b1000011 0
0)
#9750
b1000001 #
b1000001 >
b1000011 &
b1000011 7
b1000011 H
b10001010000100000 "
b10001010000100000 =
b1010000100000 I
b1000001101010100000000000000000 @
b1011101 3
1)
#9800
b1000100 0
0)
#9850
b1000010 #
b1000010 >
b1000100 &
b1000100 7
b1000100 H
b10001010000110000 "
b10001010000110000 =
b1010000110000 I
b1000001111011110000000000000000 @
b1011110 3
1)
#9900
b1000101 0
0)
#9950
b1000011 #
b1000011 >
b1000101 &
b1000101 7
b1000101 H
b10001010001000000 "
b10001010001000000 =
b1010001000000 I
b1000010001101000000000000000000 @
b1011111 3
1)
#10000
b1000110 0
0)
#10050
b1000100 #
b1000100 >
b1000110 &
b1000110 7
b1000110 H
b10001010001010000 "
b10001010001010000 =
b1010001010000 I
b1000010011110010000000000000000 @
b1100000 3
1)
#10100
b1000111 0
0)
#10150
b1000101 #
b1000101 >
b1000111 &
b1000111 7
b1000111 H
b10001010001100000 "
b10001010001100000 =
b1010001100000 I
b1000010101111100000000000000000 @
b1100001 3
1)
#10200
b1001000 0
0)
#10250
b1000110 #
b1000110 >
b1001000 &
b1001000 7
b1001000 H
b10001010001110000 "
b10001010001110000 =
b1010001110000 I
b1000011000000110000000000000000 @
b1100010 3
1)
#10300
b1001001 0
0)
#10350
b1000111 #
b1000111 >
b1001001 &
b1001001 7
b1001001 H
b10001010010000000 "
b10001010010000000 =
b1010010000000 I
b1000011010010000000000000000000 @
b1100011 3
1)
#10400
b1001010 0
0)
#10450
b1001000 #
b1001000 >
b1001010 &
b1001010 7
b1001010 H
b10001010010010000 "
b10001010010010000 =
b1010010010000 I
b1000011100011010000000000000000 @
b1100100 3
1)
#10500
b1001011 0
0)
#10550
b1001001 #
b1001001 >
b1001011 &
b1001011 7
b1001011 H
b10001010010100000 "
b10001010010100000 =
b1010010100000 I
b1000011110100100000000000000000 @
b1100101 3
1)
#10600
b1001100 0
0)
#10650
b1001010 #
b1001010 >
b1001100 &
b1001100 7
b1001100 H
b10001010010110000 "
b10001010010110000 =
b1010010110000 I
b1000100000101110000000000000000 @
b1100110 3
1)
#10700
b1001101 0
0)
#10750
b1001011 #
b1001011 >
b1001101 &
b1001101 7
b1001101 H
b10001010011000000 "
b10001010011000000 =
b1010011000000 I
b1000100010111000000000000000000 @
b1100111 3
1)
#10800
b1001110 0
0)
#10850
b1001100 #
b1001100 >
b1001110 &
b1001110 7
b1001110 H
b10001010011010000 "
b10001010011010000 =
b1010011010000 I
b1000100101000010000000000000000 @
b1101000 3
1)
#10900
b1001111 0
0)
#10950
b1001101 #
b1001101 >
b1001111 &
b1001111 7
b1001111 H
b10001010011100000 "
b10001010011100000 =
b1010011100000 I
b1000100111001100000000000000000 @
b1101001 3
1)
#11000
b1010000 0
0)
#11050
b1001110 #
b1001110 >
b1010000 &
b1010000 7
b1010000 H
b10001010011110000 "
b10001010011110000 =
b1010011110000 I
b1000101001010110000000000000000 @
b1101010 3
1)
#11100
b1010001 0
0)
#11150
b1001111 #
b1001111 >
b1010001 &
b1010001 7
b1010001 H
b10001010100000000 "
b10001010100000000 =
b1010100000000 I
b1000101011100000000000000000000 @
b1101011 3
1)
#11200
b1010010 0
0)
#11250
b1010000 #
b1010000 >
b1010010 &
b1010010 7
b1010010 H
b10001010100010000 "
b10001010100010000 =
b1010100010000 I
b1000101101101010000000000000000 @
b1101100 3
1)
#11300
b1010011 0
0)
#11350
b1010001 #
b1010001 >
b1010011 &
b1010011 7
b1010011 H
b10001010100100000 "
b10001010100100000 =
b1010100100000 I
b1000101111110100000000000000000 @
b1101101 3
1)
#11400
b1010100 0
0)
#11450
b1010010 #
b1010010 >
b1010100 &
b1010100 7
b1010100 H
b10001010100110000 "
b10001010100110000 =
b1010100110000 I
b1000110001111110000000000000000 @
b1101110 3
1)
#11500
b1010101 0
0)
#11550
b1010011 #
b1010011 >
b1010101 &
b1010101 7
b1010101 H
b10001010101000000 "
b10001010101000000 =
b1010101000000 I
b1000110100001000000000000000000 @
b1101111 3
1)
#11600
b1010110 0
0)
#11650
b1010100 #
b1010100 >
b1010110 &
b1010110 7
b1010110 H
b10001010101010000 "
b10001010101010000 =
b1010101010000 I
b1000110110010010000000000000000 @
b1110000 3
1)
#11700
b1010111 0
0)
#11750
b1010101 #
b1010101 >
b1010111 &
b1010111 7
b1010111 H
b10001010101100000 "
b10001010101100000 =
b1010101100000 I
b1000111000011100000000000000000 @
b1110001 3
1)
#11800
b1011000 0
0)
#11850
b1010110 #
b1010110 >
b1011000 &
b1011000 7
b1011000 H
b10001010101110000 "
b10001010101110000 =
b1010101110000 I
b1000111010100110000000000000000 @
b1110010 3
1)
#11900
b1011001 0
0)
#11950
b1010111 #
b1010111 >
b1011001 &
b1011001 7
b1011001 H
b10001010110000000 "
b10001010110000000 =
b1010110000000 I
b1000111100110000000000000000000 @
b1110011 3
1)
#12000
b1011010 0
0)
#12050
b1011000 #
b1011000 >
b1011010 &
b1011010 7
b1011010 H
b10001010110010000 "
b10001010110010000 =
b1010110010000 I
b1000111110111010000000000000000 @
b1110100 3
1)
#12100
b1011011 0
0)
#12150
b1011001 #
b1011001 >
b1011011 &
b1011011 7
b1011011 H
b10001010110100000 "
b10001010110100000 =
b1010110100000 I
b1001000001000100000000000000000 @
b1110101 3
1)
#12200
b1011100 0
0)
#12250
b1011010 #
b1011010 >
b1011100 &
b1011100 7
b1011100 H
b10001010110110000 "
b10001010110110000 =
b1010110110000 I
b1001000011001110000000000000000 @
b1110110 3
1)
#12300
b1011101 0
0)
#12350
b1011011 #
b1011011 >
b1011101 &
b1011101 7
b1011101 H
b10001010111000000 "
b10001010111000000 =
b1010111000000 I
b1001000101011000000000000000000 @
b1110111 3
1)
#12400
b1011110 0
0)
#12450
b1011100 #
b1011100 >
b1011110 &
b1011110 7
b1011110 H
b10001010111010000 "
b10001010111010000 =
b1010111010000 I
b1001000111100010000000000000000 @
b1111000 3
1)
#12500
b1011111 0
0)
#12550
b1011101 #
b1011101 >
b1011111 &
b1011111 7
b1011111 H
b10001010111100000 "
b10001010111100000 =
b1010111100000 I
b1001001001101100000000000000000 @
b1111001 3
1)
#12600
b1100000 0
0)
#12650
b1011110 #
b1011110 >
b1100000 &
b1100000 7
b1100000 H
b10001010111110000 "
b10001010111110000 =
b1010111110000 I
b1001001011110110000000000000000 @
b1111010 3
1)
#12700
b1100001 0
0)
#12750
b1011111 #
b1011111 >
b1100001 &
b1100001 7
b1100001 H
b10001011000000000 "
b10001011000000000 =
b1011000000000 I
b1001001110000000000000000000000 @
b1111011 3
1)
#12800
b1100010 0
0)
#12850
b1100000 #
b1100000 >
b1100010 &
b1100010 7
b1100010 H
b10001011000010000 "
b10001011000010000 =
b1011000010000 I
b1001010000001010000000000000000 @
b1111100 3
1)
#12900
b1100011 0
0)
#12950
b1100001 #
b1100001 >
b1100011 &
b1100011 7
b1100011 H
b10001011000100000 "
b10001011000100000 =
b1011000100000 I
b1001010010010100000000000000000 @
b1111101 3
1)
#13000
b1100100 0
0)
#13050
b1100010 #
b1100010 >
b1100100 &
b1100100 7
b1100100 H
b10001011000110000 "
b10001011000110000 =
b1011000110000 I
b1001010100011110000000000000000 @
b1111110 3
1)
#13100
b1100101 0
0)
#13150
b1100011 #
b1100011 >
b1100101 &
b1100101 7
b1100101 H
b10001011001000000 "
b10001011001000000 =
b1011001000000 I
b1001010110101000000000000000000 @
b1111111 3
1)
#13200
b1100110 0
0)
#13250
b1100100 #
b1100100 >
b1100110 &
b1100110 7
b1100110 H
b10001011001010000 "
b10001011001010000 =
b1011001010000 I
b1001011000110010000000000000000 @
b10000000 3
1)
#13300
b1100111 0
0)
#13350
b1100101 #
b1100101 >
b1100111 &
b1100111 7
b1100111 H
b10001011001100000 "
b10001011001100000 =
b1011001100000 I
b1001011010111100000000000000000 @
b10000001 3
1)
#13400
b1101000 0
0)
#13450
b1100110 #
b1100110 >
b1101000 &
b1101000 7
b1101000 H
b10001011001110000 "
b10001011001110000 =
b1011001110000 I
b1001011101000110000000000000000 @
b10000010 3
1)
#13500
b1101001 0
0)
