hdl/axis_bram_tb.vcd
$date
	Tue Oct 28 20:04:35 2025
$end
$version
	Icarus Verilog
$end
$timescale
	100ps
$end
$scope module axis_bram_tb $end
$var wire 32 ! tb_src_data [31:0] $end
$var wire 1 " tb_src_enable $end
$var wire 1 # tb_src_ready $end
$var wire 1 $ tb_tvalid $end
$var wire 4 % tb_tstrb [3:0] $end
$var wire 1 & tb_tlast $end
$var wire 32 ' tb_tdata [31:0] $end
$var wire 12 ( tb_src_addr [11:0] $end
$var wire 1 ) tb_done $end
$var reg 32 * mem_pipeline1 [31:0] $end
$var reg 32 + mem_pipeline2 [31:0] $end
$var reg 1 , mem_valid_pipeline1 $end
$var reg 1 - mem_valid_pipeline2 $end
$var reg 1 . tb_clk $end
$var reg 1 / tb_resetn $end
$var reg 1 0 tb_tready $end
$var integer 32 1 custom_index [31:0] $end
$var integer 32 2 i [31:0] $end
$var integer 32 3 ready_counter [31:0] $end
$var integer 32 4 transaction_count [31:0] $end
$scope module dut $end
$var wire 1 . S_AXIS_ACLK $end
$var wire 1 / S_AXIS_ARESETN $end
$var wire 32 5 S_AXIS_TDATA [31:0] $end
$var wire 1 & S_AXIS_TLAST $end
$var wire 1 0 S_AXIS_TREADY $end
$var wire 4 6 S_AXIS_TSTRB [3:0] $end
$var wire 1 $ S_AXIS_TVALID $end
$var wire 1 7 aclk $end
$var wire 1 8 aresetn $end
$var wire 1 9 axis_handshake $end
$var wire 1 : i_ready $end
$var wire 12 ; src_addr [11:0] $end
$var wire 32 < src_data [31:0] $end
$var wire 1 " src_enable $end
$var wire 1 # src_ready $end
$var wire 1 ) done $end
$var reg 2 = axis_state [1:0] $end
$var reg 12 > counter [11:0] $end
$var reg 3 ? latency_counter [2:0] $end
$var reg 32 @ o_data [31:0] $end
$var reg 1 A o_last $end
$var reg 4 B o_strb [3:0] $end
$var reg 1 C o_valid $end
$var reg 2 D queue_head [1:0] $end
$var reg 12 E sent_data [11:0] $end
$var integer 32 F i [31:0] $end
$upscope $end
$upscope $end
$enddefinitions $end
#0
$dumpvars
bx F
bx E
bx D
xC
bx B
xA
bx @
bx ?
bx >
b0 =
bx <
bx ;
x:
x9
08
07
bx 6
bx 5
b0 4
b0 3
b10000 2
b0 1
x0
0/
0.
x-
x,
bx +
bx *
0)
bx (
bx '
x&
bx %
x$
1#
1"
bx !
$end
#50
09
b0 E
b0 (
b0 ;
b0 >
b0 ?
b0 D
b1111 %
b1111 6
b1111 B
0$
0C
0&
0A
b11 =
b0 '
b0 5
b0 @
0-
0,
b0 !
b0 <
b0 +
b0 *
0:
00
b11 F
17
1.
#100
07
0.
#150
b11 F
17
1.
#200
07
0.
#250
b11 F
17
1.
#300
07
0.
#350
b11 F
17
1.
#400
07
0.
#450
b11 F
17
1.
#500
07
0.
18
1/
#550
b0 =
1:
10
1,
b10100000000000000000000000000000 *
b10 F
17
1.
#600
07
0.
#650
b1 ?
b1 (
b1 ;
b1 >
1-
b10100000000000000000000000000000 !
b10100000000000000000000000000000 <
b10100000000000000000000000000000 +
b10 F
17
1.
#700
07
0.
#750
b10 ?
b10 (
b10 ;
b10 >
b10100000000000000000000000000001 *
b10 F
17
1.
#800
07
0.
#850
b11 ?
b11 (
b11 ;
b11 >
b10100000000000000000000000000001 !
b10100000000000000000000000000001 <
b10100000000000000000000000000001 +
b10100000000000000000000000000010 *
b10 F
17
1.
#900
07
0.
#950
b100 ?
b100 (
b100 ;
b100 >
b10100000000000000000000000000010 !
b10100000000000000000000000000010 <
b10100000000000000000000000000010 +
b10100000000000000000000000000011 *
b10 F
17
1.
#1000
07
0.
#1050
19
1$
1C
b1 =
b101 ?
b101 (
b101 ;
b101 >
b10100000000000000000000000000000 '
b10100000000000000000000000000000 5
b10100000000000000000000000000000 @
b10100000000000000000000000000011 !
b10100000000000000000000000000011 <
b10100000000000000000000000000011 +
b10100000000000000000000000000100 *
b10 F
17
1.
#1100
07
0.
#1150
b1 E
b110 (
b110 ;
b110 >
b1 D
b10100000000000000000000000000100 !
b10100000000000000000000000000100 <
b10100000000000000000000000000100 +
b10100000000000000000000000000101 *
b10 F
b1 4
17
1.
#1200
07
0.
#1250
b10 E
b111 (
b111 ;
b111 >
b10 D
b10100000000000000000000000000010 '
b10100000000000000000000000000010 5
b10100000000000000000000000000010 @
b10100000000000000000000000000101 !
b10100000000000000000000000000101 <
b10100000000000000000000000000101 +
b10100000000000000000000000000110 *
b10 F
b10 4
17
1.
#1300
07
0.
#1350
b10100000000000000000000000000100 '
b10100000000000000000000000000100 5
b10100000000000000000000000000100 @
b11 E
b1000 (
b1000 ;
b1000 >
b10100000000000000000000000000110 !
b10100000000000000000000000000110 <
b10100000000000000000000000000110 +
b10100000000000000000000000000111 *
b10 F
b11 4
17
1.
#1400
07
0.
#1450
b100 E
b1001 (
b1001 ;
b1001 >
b10100000000000000000000000000101 '
b10100000000000000000000000000101 5
b10100000000000000000000000000101 @
b10100000000000000000000000000111 !
b10100000000000000000000000000111 <
b10100000000000000000000000000111 +
b10100000000000000000000000001000 *
b10 F
b100 4
17
1.
#1500
07
0.
#1550
b10100000000000000000000000000110 '
b10100000000000000000000000000110 5
b10100000000000000000000000000110 @
b101 E
b1010 (
b1010 ;
b1010 >
b10100000000000000000000000001000 !
b10100000000000000000000000001000 <
b10100000000000000000000000001000 +
b10100000000000000000000000001001 *
b10 F
b101 4
17
1.
#1600
07
0.
#1650
b110 E
b1011 (
b1011 ;
b1011 >
b10100000000000000000000000000111 '
b10100000000000000000000000000111 5
b10100000000000000000000000000111 @
b10100000000000000000000000001001 !
b10100000000000000000000000001001 <
b10100000000000000000000000001001 +
b10100000000000000000000000001010 *
b10 F
b110 4
17
1.
#1700
07
0.
#1750
b10100000000000000000000000001000 '
b10100000000000000000000000001000 5
b10100000000000000000000000001000 @
b111 E
b1100 (
b1100 ;
b1100 >
b10100000000000000000000000001010 !
b10100000000000000000000000001010 <
b10100000000000000000000000001010 +
b10100000000000000000000000001011 *
b10 F
b111 4
17
1.
#1800
07
0.
#1850
b1000 E
b1101 (
b1101 ;
b1101 >
b10100000000000000000000000001001 '
b10100000000000000000000000001001 5
b10100000000000000000000000001001 @
b10100000000000000000000000001011 !
b10100000000000000000000000001011 <
b10100000000000000000000000001011 +
b10100000000000000000000000001100 *
b10 F
b1000 4
17
1.
#1900
07
0.
#1950
b10100000000000000000000000001010 '
b10100000000000000000000000001010 5
b10100000000000000000000000001010 @
b1001 E
b1110 (
b1110 ;
b1110 >
b10100000000000000000000000001100 !
b10100000000000000000000000001100 <
b10100000000000000000000000001100 +
b10100000000000000000000000001101 *
b10 F
b1001 4
17
1.
#2000
07
0.
#2050
b1010 E
b1111 (
b1111 ;
b1111 >
b10100000000000000000000000001011 '
b10100000000000000000000000001011 5
b10100000000000000000000000001011 @
b10100000000000000000000000001101 !
b10100000000000000000000000001101 <
b10100000000000000000000000001101 +
b10100000000000000000000000001110 *
b10 F
b1010 4
17
1.
#2100
07
0.
#2150
b10100000000000000000000000001100 '
b10100000000000000000000000001100 5
b10100000000000000000000000001100 @
b1011 E
b10000 (
b10000 ;
b10000 >
b10100000000000000000000000001110 !
b10100000000000000000000000001110 <
b10100000000000000000000000001110 +
b10100000000000000000000000001111 *
b10 F
b1011 4
17
1.
#2200
07
0.
#2250
b1100 E
b10001 (
b10001 ;
b10001 >
b10100000000000000000000000001101 '
b10100000000000000000000000001101 5
b10100000000000000000000000001101 @
b10100000000000000000000000001111 !
b10100000000000000000000000001111 <
b10100000000000000000000000001111 +
b10100000000000000000000000010000 *
b10 F
b1100 4
17
1.
#2300
07
0.
#2350
b10100000000000000000000000001110 '
b10100000000000000000000000001110 5
b10100000000000000000000000001110 @
b1101 E
b10010 (
b10010 ;
b10010 >
b10100000000000000000000000010000 !
b10100000000000000000000000010000 <
b10100000000000000000000000010000 +
b10100000000000000000000000010001 *
b10 F
b1101 4
17
1.
#2400
07
0.
#2450
b1110 E
b10011 (
b10011 ;
b10011 >
b10100000000000000000000000001111 '
b10100000000000000000000000001111 5
b10100000000000000000000000001111 @
b10100000000000000000000000010001 !
b10100000000000000000000000010001 <
b10100000000000000000000000010001 +
b10100000000000000000000000010010 *
b10 F
b1110 4
17
1.
#2500
07
0.
#2550
b10100000000000000000000000010000 '
b10100000000000000000000000010000 5
b10100000000000000000000000010000 @
b1111 E
b10100 (
b10100 ;
b10100 >
b10100000000000000000000000010010 !
b10100000000000000000000000010010 <
b10100000000000000000000000010010 +
b10100000000000000000000000010011 *
b10 F
b1111 4
17
1.
#2600
07
0.
#2650
b10000 E
b10101 (
b10101 ;
b10101 >
b10100000000000000000000000010001 '
b10100000000000000000000000010001 5
b10100000000000000000000000010001 @
b10100000000000000000000000010011 !
b10100000000000000000000000010011 <
b10100000000000000000000000010011 +
b10100000000000000000000000010100 *
b10 F
b10000 4
17
1.
#2700
07
0.
#2750
b10100000000000000000000000010010 '
b10100000000000000000000000010010 5
b10100000000000000000000000010010 @
b10001 E
b10110 (
b10110 ;
b10110 >
b10100000000000000000000000010100 !
b10100000000000000000000000010100 <
b10100000000000000000000000010100 +
b10100000000000000000000000010101 *
b10 F
b10001 4
17
1.
#2800
07
0.
#2850
b10010 E
b10111 (
b10111 ;
b10111 >
b10100000000000000000000000010011 '
b10100000000000000000000000010011 5
b10100000000000000000000000010011 @
b10100000000000000000000000010101 !
b10100000000000000000000000010101 <
b10100000000000000000000000010101 +
b10100000000000000000000000010110 *
b10 F
b10010 4
17
1.
#2900
07
0.
#2950
b10100000000000000000000000010100 '
b10100000000000000000000000010100 5
b10100000000000000000000000010100 @
b10011 E
b11000 (
b11000 ;
b11000 >
b10100000000000000000000000010110 !
b10100000000000000000000000010110 <
b10100000000000000000000000010110 +
b10100000000000000000000000010111 *
b10 F
b10011 4
17
1.
#3000
07
0.
#3050
b10100 E
b11001 (
b11001 ;
b11001 >
b10100000000000000000000000010101 '
b10100000000000000000000000010101 5
b10100000000000000000000000010101 @
b10100000000000000000000000010111 !
b10100000000000000000000000010111 <
b10100000000000000000000000010111 +
b10100000000000000000000000011000 *
b10 F
b10100 4
17
1.
#3100
07
0.
#3150
b10100000000000000000000000010110 '
b10100000000000000000000000010110 5
b10100000000000000000000000010110 @
b10101 E
b11010 (
b11010 ;
b11010 >
b10100000000000000000000000011000 !
b10100000000000000000000000011000 <
b10100000000000000000000000011000 +
b10100000000000000000000000011001 *
b10 F
b10101 4
17
1.
#3200
07
0.
#3250
b10110 E
b11011 (
b11011 ;
b11011 >
b10100000000000000000000000010111 '
b10100000000000000000000000010111 5
b10100000000000000000000000010111 @
b10100000000000000000000000011001 !
b10100000000000000000000000011001 <
b10100000000000000000000000011001 +
b10100000000000000000000000011010 *
b10 F
b10110 4
17
1.
#3300
07
0.
#3350
b10100000000000000000000000011000 '
b10100000000000000000000000011000 5
b10100000000000000000000000011000 @
b10111 E
b11100 (
b11100 ;
b11100 >
b10100000000000000000000000011010 !
b10100000000000000000000000011010 <
b10100000000000000000000000011010 +
b10100000000000000000000000011011 *
b10 F
b10111 4
17
1.
#3400
07
0.
#3450
b11000 E
b11101 (
b11101 ;
b11101 >
b10100000000000000000000000011001 '
b10100000000000000000000000011001 5
b10100000000000000000000000011001 @
b10100000000000000000000000011011 !
b10100000000000000000000000011011 <
b10100000000000000000000000011011 +
b10100000000000000000000000011100 *
b10 F
b11000 4
17
1.
#3500
07
0.
#3550
b10100000000000000000000000011010 '
b10100000000000000000000000011010 5
b10100000000000000000000000011010 @
b11001 E
b11110 (
b11110 ;
b11110 >
b10100000000000000000000000011100 !
b10100000000000000000000000011100 <
b10100000000000000000000000011100 +
b10100000000000000000000000011101 *
b10 F
b11001 4
17
1.
#3600
07
0.
#3650
b11010 E
b11111 (
b11111 ;
b11111 >
b10100000000000000000000000011011 '
b10100000000000000000000000011011 5
b10100000000000000000000000011011 @
b10100000000000000000000000011101 !
b10100000000000000000000000011101 <
b10100000000000000000000000011101 +
b10100000000000000000000000011110 *
b10 F
b11010 4
17
1.
#3700
07
0.
#3750
b10100000000000000000000000011100 '
b10100000000000000000000000011100 5
b10100000000000000000000000011100 @
b11011 E
b100000 (
b100000 ;
b100000 >
b10100000000000000000000000011110 !
b10100000000000000000000000011110 <
b10100000000000000000000000011110 +
b10100000000000000000000000011111 *
b10 F
b11011 4
17
1.
#3800
07
0.
#3850
b11100 E
b100001 (
b100001 ;
b100001 >
b10100000000000000000000000011101 '
b10100000000000000000000000011101 5
b10100000000000000000000000011101 @
b10100000000000000000000000011111 !
b10100000000000000000000000011111 <
b10100000000000000000000000011111 +
b10100000000000000000000000100000 *
b10 F
b11100 4
17
1.
#3900
07
0.
#3950
b10100000000000000000000000011110 '
b10100000000000000000000000011110 5
b10100000000000000000000000011110 @
b11101 E
b100010 (
b100010 ;
b100010 >
b10100000000000000000000000100000 !
b10100000000000000000000000100000 <
b10100000000000000000000000100000 +
b10100000000000000000000000100001 *
b10 F
b11101 4
17
1.
#4000
07
0.
#4050
b11110 E
b100011 (
b100011 ;
b100011 >
b10100000000000000000000000011111 '
b10100000000000000000000000011111 5
b10100000000000000000000000011111 @
b10100000000000000000000000100001 !
b10100000000000000000000000100001 <
b10100000000000000000000000100001 +
b10100000000000000000000000100010 *
b10 F
b11110 4
17
1.
#4100
07
0.
#4150
b10100000000000000000000000100000 '
b10100000000000000000000000100000 5
b10100000000000000000000000100000 @
b11111 E
b100100 (
b100100 ;
b100100 >
b10100000000000000000000000100010 !
b10100000000000000000000000100010 <
b10100000000000000000000000100010 +
b10100000000000000000000000100011 *
b10 F
b11111 4
17
1.
#4200
07
0.
#4250
b100000 E
b100101 (
b100101 ;
b100101 >
b10100000000000000000000000100001 '
b10100000000000000000000000100001 5
b10100000000000000000000000100001 @
b10100000000000000000000000100011 !
b10100000000000000000000000100011 <
b10100000000000000000000000100011 +
b10100000000000000000000000100100 *
b10 F
b100000 4
17
1.
#4300
07
0.
#4350
b10100000000000000000000000100010 '
b10100000000000000000000000100010 5
b10100000000000000000000000100010 @
b100001 E
b100110 (
b100110 ;
b100110 >
b10100000000000000000000000100100 !
b10100000000000000000000000100100 <
b10100000000000000000000000100100 +
b10100000000000000000000000100101 *
b10 F
b100001 4
17
1.
#4400
07
0.
#4450
b100010 E
b100111 (
b100111 ;
b100111 >
b10100000000000000000000000100011 '
b10100000000000000000000000100011 5
b10100000000000000000000000100011 @
b10100000000000000000000000100101 !
b10100000000000000000000000100101 <
b10100000000000000000000000100101 +
b10100000000000000000000000100110 *
b10 F
b100010 4
17
1.
#4500
07
0.
#4550
b10100000000000000000000000100100 '
b10100000000000000000000000100100 5
b10100000000000000000000000100100 @
b100011 E
b101000 (
b101000 ;
b101000 >
b10100000000000000000000000100110 !
b10100000000000000000000000100110 <
b10100000000000000000000000100110 +
b10100000000000000000000000100111 *
b10 F
b100011 4
17
1.
#4600
07
0.
#4650
b100100 E
b101001 (
b101001 ;
b101001 >
b10100000000000000000000000100101 '
b10100000000000000000000000100101 5
b10100000000000000000000000100101 @
b10100000000000000000000000100111 !
b10100000000000000000000000100111 <
b10100000000000000000000000100111 +
b10100000000000000000000000101000 *
b10 F
b100100 4
17
1.
#4700
07
0.
#4750
b10100000000000000000000000100110 '
b10100000000000000000000000100110 5
b10100000000000000000000000100110 @
b100101 E
b101010 (
b101010 ;
b101010 >
b10100000000000000000000000101000 !
b10100000000000000000000000101000 <
b10100000000000000000000000101000 +
b10100000000000000000000000101001 *
b10 F
b100101 4
17
1.
#4800
07
0.
#4850
b100110 E
b101011 (
b101011 ;
b101011 >
b10100000000000000000000000100111 '
b10100000000000000000000000100111 5
b10100000000000000000000000100111 @
b10100000000000000000000000101001 !
b10100000000000000000000000101001 <
b10100000000000000000000000101001 +
b10100000000000000000000000101010 *
b10 F
b100110 4
17
1.
#4900
07
0.
#4950
b10100000000000000000000000101000 '
b10100000000000000000000000101000 5
b10100000000000000000000000101000 @
b100111 E
b101100 (
b101100 ;
b101100 >
b10100000000000000000000000101010 !
b10100000000000000000000000101010 <
b10100000000000000000000000101010 +
b10100000000000000000000000101011 *
b10 F
b100111 4
17
1.
#5000
07
0.
#5050
b101000 E
b101101 (
b101101 ;
b101101 >
b10100000000000000000000000101001 '
b10100000000000000000000000101001 5
b10100000000000000000000000101001 @
b10100000000000000000000000101011 !
b10100000000000000000000000101011 <
b10100000000000000000000000101011 +
b10100000000000000000000000101100 *
b10 F
b101000 4
17
1.
#5100
07
0.
#5150
b10100000000000000000000000101010 '
b10100000000000000000000000101010 5
b10100000000000000000000000101010 @
b101001 E
b101110 (
b101110 ;
b101110 >
b10100000000000000000000000101100 !
b10100000000000000000000000101100 <
b10100000000000000000000000101100 +
b10100000000000000000000000101101 *
b10 F
b101001 4
17
1.
#5200
07
0.
#5250
b101010 E
b101111 (
b101111 ;
b101111 >
b10100000000000000000000000101011 '
b10100000000000000000000000101011 5
b10100000000000000000000000101011 @
b10100000000000000000000000101101 !
b10100000000000000000000000101101 <
b10100000000000000000000000101101 +
b10100000000000000000000000101110 *
b10 F
b101010 4
17
1.
#5300
07
0.
#5350
b10100000000000000000000000101100 '
b10100000000000000000000000101100 5
b10100000000000000000000000101100 @
b101011 E
b110000 (
b110000 ;
b110000 >
b10100000000000000000000000101110 !
b10100000000000000000000000101110 <
b10100000000000000000000000101110 +
b10100000000000000000000000101111 *
b10 F
b101011 4
17
1.
#5400
07
0.
#5450
b101100 E
b110001 (
b110001 ;
b110001 >
b10100000000000000000000000101101 '
b10100000000000000000000000101101 5
b10100000000000000000000000101101 @
b10100000000000000000000000101111 !
b10100000000000000000000000101111 <
b10100000000000000000000000101111 +
b10100000000000000000000000110000 *
b10 F
b101100 4
17
1.
#5500
07
0.
#5550
b10100000000000000000000000101110 '
b10100000000000000000000000101110 5
b10100000000000000000000000101110 @
b101101 E
b110010 (
b110010 ;
b110010 >
b10100000000000000000000000110000 !
b10100000000000000000000000110000 <
b10100000000000000000000000110000 +
b10100000000000000000000000110001 *
b10 F
b101101 4
17
1.
#5600
07
0.
#5650
b101110 E
b110011 (
b110011 ;
b110011 >
b10100000000000000000000000101111 '
b10100000000000000000000000101111 5
b10100000000000000000000000101111 @
b10100000000000000000000000110001 !
b10100000000000000000000000110001 <
b10100000000000000000000000110001 +
b10100000000000000000000000110010 *
b10 F
b101110 4
17
1.
#5700
07
0.
#5750
b10100000000000000000000000110000 '
b10100000000000000000000000110000 5
b10100000000000000000000000110000 @
b101111 E
b110100 (
b110100 ;
b110100 >
b10100000000000000000000000110010 !
b10100000000000000000000000110010 <
b10100000000000000000000000110010 +
b10100000000000000000000000110011 *
b10 F
b101111 4
17
1.
#5800
07
0.
#5850
b110000 E
b110101 (
b110101 ;
b110101 >
b10100000000000000000000000110001 '
b10100000000000000000000000110001 5
b10100000000000000000000000110001 @
b10100000000000000000000000110011 !
b10100000000000000000000000110011 <
b10100000000000000000000000110011 +
b10100000000000000000000000110100 *
b10 F
b110000 4
17
1.
#5900
07
0.
#5950
b10100000000000000000000000110010 '
b10100000000000000000000000110010 5
b10100000000000000000000000110010 @
b110001 E
b110110 (
b110110 ;
b110110 >
b10100000000000000000000000110100 !
b10100000000000000000000000110100 <
b10100000000000000000000000110100 +
b10100000000000000000000000110101 *
b10 F
b110001 4
17
1.
#6000
07
0.
#6050
b110010 E
b110111 (
b110111 ;
b110111 >
b10100000000000000000000000110011 '
b10100000000000000000000000110011 5
b10100000000000000000000000110011 @
b10100000000000000000000000110101 !
b10100000000000000000000000110101 <
b10100000000000000000000000110101 +
b10100000000000000000000000110110 *
b10 F
b110010 4
17
1.
#6100
07
0.
#6150
b10100000000000000000000000110100 '
b10100000000000000000000000110100 5
b10100000000000000000000000110100 @
b110011 E
b111000 (
b111000 ;
b111000 >
b10100000000000000000000000110110 !
b10100000000000000000000000110110 <
b10100000000000000000000000110110 +
b10100000000000000000000000110111 *
b10 F
b110011 4
17
1.
#6200
07
0.
#6250
b110100 E
b111001 (
b111001 ;
b111001 >
b10100000000000000000000000110101 '
b10100000000000000000000000110101 5
b10100000000000000000000000110101 @
b10100000000000000000000000110111 !
b10100000000000000000000000110111 <
b10100000000000000000000000110111 +
b10100000000000000000000000111000 *
b10 F
b110100 4
17
1.
#6300
07
0.
#6350
b10100000000000000000000000110110 '
b10100000000000000000000000110110 5
b10100000000000000000000000110110 @
b110101 E
b111010 (
b111010 ;
b111010 >
b10100000000000000000000000111000 !
b10100000000000000000000000111000 <
b10100000000000000000000000111000 +
b10100000000000000000000000111001 *
b10 F
b110101 4
17
1.
#6400
07
0.
#6450
b110110 E
b111011 (
b111011 ;
b111011 >
b10100000000000000000000000110111 '
b10100000000000000000000000110111 5
b10100000000000000000000000110111 @
b10100000000000000000000000111001 !
b10100000000000000000000000111001 <
b10100000000000000000000000111001 +
b10100000000000000000000000111010 *
b10 F
b110110 4
17
1.
#6500
07
0.
#6550
b10100000000000000000000000111000 '
b10100000000000000000000000111000 5
b10100000000000000000000000111000 @
b110111 E
b111100 (
b111100 ;
b111100 >
b10100000000000000000000000111010 !
b10100000000000000000000000111010 <
b10100000000000000000000000111010 +
b10100000000000000000000000111011 *
b10 F
b110111 4
17
1.
#6600
07
0.
#6650
b111000 E
b111101 (
b111101 ;
b111101 >
b10100000000000000000000000111001 '
b10100000000000000000000000111001 5
b10100000000000000000000000111001 @
b10100000000000000000000000111011 !
b10100000000000000000000000111011 <
b10100000000000000000000000111011 +
b10100000000000000000000000111100 *
b10 F
b111000 4
17
1.
#6700
07
0.
#6750
b10100000000000000000000000111010 '
b10100000000000000000000000111010 5
b10100000000000000000000000111010 @
b111001 E
b111110 (
b111110 ;
b111110 >
b10100000000000000000000000111100 !
b10100000000000000000000000111100 <
b10100000000000000000000000111100 +
b10100000000000000000000000111101 *
b10 F
b111001 4
17
1.
#6800
07
0.
#6850
b111010 E
b111111 (
b111111 ;
b111111 >
b10100000000000000000000000111011 '
b10100000000000000000000000111011 5
b10100000000000000000000000111011 @
b10100000000000000000000000111101 !
b10100000000000000000000000111101 <
b10100000000000000000000000111101 +
b10100000000000000000000000111110 *
b10 F
b111010 4
17
1.
#6900
07
0.
#6950
b10100000000000000000000000111100 '
b10100000000000000000000000111100 5
b10100000000000000000000000111100 @
b111011 E
b1000000 (
b1000000 ;
b1000000 >
b10100000000000000000000000111110 !
b10100000000000000000000000111110 <
b10100000000000000000000000111110 +
b10100000000000000000000000111111 *
b10 F
b111011 4
17
1.
#7000
07
0.
#7050
b111100 E
b1000001 (
b1000001 ;
b1000001 >
b10100000000000000000000000111101 '
b10100000000000000000000000111101 5
b10100000000000000000000000111101 @
b10100000000000000000000000111111 !
b10100000000000000000000000111111 <
b10100000000000000000000000111111 +
b10100000000000000000000001000000 *
b10 F
b111100 4
17
1.
#7100
07
0.
#7150
b10100000000000000000000000111110 '
b10100000000000000000000000111110 5
b10100000000000000000000000111110 @
b111101 E
b1000010 (
b1000010 ;
b1000010 >
b10100000000000000000000001000000 !
b10100000000000000000000001000000 <
b10100000000000000000000001000000 +
b10100000000000000000000001000001 *
b10 F
b111101 4
17
1.
#7200
07
0.
#7250
b111110 E
b1000011 (
b1000011 ;
b1000011 >
b10100000000000000000000000111111 '
b10100000000000000000000000111111 5
b10100000000000000000000000111111 @
b10100000000000000000000001000001 !
b10100000000000000000000001000001 <
b10100000000000000000000001000001 +
b10100000000000000000000001000010 *
b10 F
b111110 4
17
1.
#7300
07
0.
#7350
b10100000000000000000000001000000 '
b10100000000000000000000001000000 5
b10100000000000000000000001000000 @
b111111 E
b1000100 (
b1000100 ;
b1000100 >
b10100000000000000000000001000010 !
b10100000000000000000000001000010 <
b10100000000000000000000001000010 +
b10100000000000000000000001000011 *
b10 F
b111111 4
17
1.
#7400
07
0.
#7450
b1000000 E
b1000101 (
b1000101 ;
b1000101 >
b10100000000000000000000001000001 '
b10100000000000000000000001000001 5
b10100000000000000000000001000001 @
b10100000000000000000000001000011 !
b10100000000000000000000001000011 <
b10100000000000000000000001000011 +
b10100000000000000000000001000100 *
b10 F
b1000000 4
17
1.
#7500
07
0.
#7550
b10100000000000000000000001000010 '
b10100000000000000000000001000010 5
b10100000000000000000000001000010 @
b1000001 E
b1000110 (
b1000110 ;
b1000110 >
b10100000000000000000000001000100 !
b10100000000000000000000001000100 <
b10100000000000000000000001000100 +
b10100000000000000000000001000101 *
b10 F
b1000001 4
17
1.
#7600
07
0.
#7650
b1000010 E
b1000111 (
b1000111 ;
b1000111 >
b10100000000000000000000001000011 '
b10100000000000000000000001000011 5
b10100000000000000000000001000011 @
b10100000000000000000000001000101 !
b10100000000000000000000001000101 <
b10100000000000000000000001000101 +
b10100000000000000000000001000110 *
b10 F
b1000010 4
17
1.
#7700
07
0.
#7750
b10100000000000000000000001000100 '
b10100000000000000000000001000100 5
b10100000000000000000000001000100 @
b1000011 E
b1001000 (
b1001000 ;
b1001000 >
b10100000000000000000000001000110 !
b10100000000000000000000001000110 <
b10100000000000000000000001000110 +
b10100000000000000000000001000111 *
b10 F
b1000011 4
17
1.
#7800
07
0.
#7850
b1000100 E
b1001001 (
b1001001 ;
b1001001 >
b10100000000000000000000001000101 '
b10100000000000000000000001000101 5
b10100000000000000000000001000101 @
b10100000000000000000000001000111 !
b10100000000000000000000001000111 <
b10100000000000000000000001000111 +
b10100000000000000000000001001000 *
b10 F
b1000100 4
17
1.
#7900
07
0.
#7950
b10100000000000000000000001000110 '
b10100000000000000000000001000110 5
b10100000000000000000000001000110 @
b1000101 E
b1001010 (
b1001010 ;
b1001010 >
b10100000000000000000000001001000 !
b10100000000000000000000001001000 <
b10100000000000000000000001001000 +
b10100000000000000000000001001001 *
b10 F
b1000101 4
17
1.
#8000
07
0.
#8050
b1000110 E
b1001011 (
b1001011 ;
b1001011 >
b10100000000000000000000001000111 '
b10100000000000000000000001000111 5
b10100000000000000000000001000111 @
b10100000000000000000000001001001 !
b10100000000000000000000001001001 <
b10100000000000000000000001001001 +
b10100000000000000000000001001010 *
b10 F
b1000110 4
17
1.
#8100
07
0.
#8150
b10100000000000000000000001001000 '
b10100000000000000000000001001000 5
b10100000000000000000000001001000 @
b1000111 E
b1001100 (
b1001100 ;
b1001100 >
b10100000000000000000000001001010 !
b10100000000000000000000001001010 <
b10100000000000000000000001001010 +
b10100000000000000000000001001011 *
b10 F
b1000111 4
17
1.
#8200
07
0.
#8250
b1001000 E
b1001101 (
b1001101 ;
b1001101 >
b10100000000000000000000001001001 '
b10100000000000000000000001001001 5
b10100000000000000000000001001001 @
b10100000000000000000000001001011 !
b10100000000000000000000001001011 <
b10100000000000000000000001001011 +
b10100000000000000000000001001100 *
b10 F
b1001000 4
17
1.
#8300
07
0.
#8350
b10100000000000000000000001001010 '
b10100000000000000000000001001010 5
b10100000000000000000000001001010 @
b1001001 E
b1001110 (
b1001110 ;
b1001110 >
b10100000000000000000000001001100 !
b10100000000000000000000001001100 <
b10100000000000000000000001001100 +
b10100000000000000000000001001101 *
b10 F
b1001001 4
17
1.
#8400
07
0.
#8450
b1001010 E
b1001111 (
b1001111 ;
b1001111 >
b10100000000000000000000001001011 '
b10100000000000000000000001001011 5
b10100000000000000000000001001011 @
b10100000000000000000000001001101 !
b10100000000000000000000001001101 <
b10100000000000000000000001001101 +
b10100000000000000000000001001110 *
b10 F
b1001010 4
17
1.
#8500
07
0.
#8550
b10100000000000000000000001001100 '
b10100000000000000000000001001100 5
b10100000000000000000000001001100 @
b1001011 E
b1010000 (
b1010000 ;
b1010000 >
b10100000000000000000000001001110 !
b10100000000000000000000001001110 <
b10100000000000000000000001001110 +
b10100000000000000000000001001111 *
b10 F
b1001011 4
17
1.
#8600
07
0.
#8650
b1001100 E
b1010001 (
b1010001 ;
b1010001 >
b10100000000000000000000001001101 '
b10100000000000000000000001001101 5
b10100000000000000000000001001101 @
b10100000000000000000000001001111 !
b10100000000000000000000001001111 <
b10100000000000000000000001001111 +
b10100000000000000000000001010000 *
b10 F
b1001100 4
17
1.
#8700
07
0.
#8750
b10100000000000000000000001001110 '
b10100000000000000000000001001110 5
b10100000000000000000000001001110 @
b1001101 E
b1010010 (
b1010010 ;
b1010010 >
b10100000000000000000000001010000 !
b10100000000000000000000001010000 <
b10100000000000000000000001010000 +
b10100000000000000000000001010001 *
b10 F
b1001101 4
17
1.
#8800
07
0.
#8850
b1001110 E
b1010011 (
b1010011 ;
b1010011 >
b10100000000000000000000001001111 '
b10100000000000000000000001001111 5
b10100000000000000000000001001111 @
b10100000000000000000000001010001 !
b10100000000000000000000001010001 <
b10100000000000000000000001010001 +
b10100000000000000000000001010010 *
b10 F
b1001110 4
17
1.
#8900
07
0.
#8950
b10100000000000000000000001010000 '
b10100000000000000000000001010000 5
b10100000000000000000000001010000 @
b1001111 E
b1010100 (
b1010100 ;
b1010100 >
b10100000000000000000000001010010 !
b10100000000000000000000001010010 <
b10100000000000000000000001010010 +
b10100000000000000000000001010011 *
b10 F
b1001111 4
17
1.
#9000
07
0.
#9050
b1010000 E
b1010101 (
b1010101 ;
b1010101 >
b10100000000000000000000001010001 '
b10100000000000000000000001010001 5
b10100000000000000000000001010001 @
b10100000000000000000000001010011 !
b10100000000000000000000001010011 <
b10100000000000000000000001010011 +
b10100000000000000000000001010100 *
b10 F
b1010000 4
17
1.
#9100
07
0.
#9150
b10100000000000000000000001010010 '
b10100000000000000000000001010010 5
b10100000000000000000000001010010 @
b1010001 E
b1010110 (
b1010110 ;
b1010110 >
b10100000000000000000000001010100 !
b10100000000000000000000001010100 <
b10100000000000000000000001010100 +
b10100000000000000000000001010101 *
b10 F
b1010001 4
17
1.
#9200
07
0.
